84-578-4383,PEN-7397,"2.000"" X 144""", , ,21031691B,1,2088,G27463,144,0,2
84-578-4383,PEN-7397,"2.000"" X 144""", , ,21031691C,1,2124,G27463,144,0,2
84-578-4383,PEN-7397,"2.000"" X 144""", , ,21031691E,1,2064,G27463,144,0,2
