-------- 26-02-2020 15:07:22 --------
m_sFileType = 856863
------------------------
-------- 26-02-2020 15:07:22 --------
select i53_new_rcpt_no from XCTI53_rec where i53_intchg_no =0
------------------------
-------- 26-02-2020 15:07:37 --------
XML PROCESSING START FILE ID 0
------------------------
-------- 26-02-2020 15:09:59 --------
Select first 1 pod_shp_to_whs,pod_frt_ven_id from potpod_rec where pod_cmpy_id =  'STX' and pod_po_pfx= 'PO' and pod_po_no = '512373'
------------------------
-------- 26-02-2020 15:15:28 --------
 UPDATE header set RcvWhs = '', VenShpRef = 'AB09065A', CarrierName = 'PARKER TOWING COMPANY', CarrierVehicleDesc = 'PARKER TOWING COMPANY'  WHERE  HeaderId = 20
------------------------
-------- 26-02-2020 15:15:45 --------
GetPoDetails error occured
------------------------
-------- 26-02-2020 15:15:45 --------
System.Data.Odbc.OdbcException (0x80131937): ERROR [08004] [Informix][Informix ODBC Driver][Informix]Attempt to connect to database server (skydvlptrnsky) failed.
ERROR [01S00] [Informix][Informix ODBC Driver]Invalid connection string attribute.
ERROR [01S00] [Informix][Informix ODBC Driver]Invalid connection string attribute.
   at System.Data.Odbc.OdbcConnection.HandleError(OdbcHandle hrHandle, RetCode retcode)
   at System.Data.Odbc.OdbcConnectionHandle..ctor(OdbcConnection connection, OdbcConnectionString constr, OdbcEnvironmentHandle environmentHandle)
   at System.Data.Odbc.OdbcConnectionOpen..ctor(OdbcConnection outerConnection, OdbcConnectionString connectionOptions)
   at System.Data.Odbc.OdbcConnectionFactory.CreateConnection(DbConnectionOptions options, DbConnectionPoolKey poolKey, Object poolGroupProviderInfo, DbConnectionPool pool, DbConnection owningObject)
   at System.Data.ProviderBase.DbConnectionFactory.CreateConnection(DbConnectionOptions options, DbConnectionPoolKey poolKey, Object poolGroupProviderInfo, DbConnectionPool pool, DbConnection owningConnection, DbConnectionOptions userOptions)
   at System.Data.ProviderBase.DbConnectionFactory.CreateNonPooledConnection(DbConnection owningConnection, DbConnectionPoolGroup poolGroup, DbConnectionOptions userOptions)
   at System.Data.ProviderBase.DbConnectionFactory.TryGetConnection(DbConnection owningConnection, TaskCompletionSource`1 retry, DbConnectionOptions userOptions, DbConnectionInternal oldConnection, DbConnectionInternal& connection)
   at System.Data.ProviderBase.DbConnectionInternal.TryOpenConnectionInternal(DbConnection outerConnection, DbConnectionFactory connectionFactory, TaskCompletionSource`1 retry, DbConnectionOptions userOptions)
   at System.Data.ProviderBase.DbConnectionClosed.TryOpenConnection(DbConnection outerConnection, DbConnectionFactory connectionFactory, TaskCompletionSource`1 retry, DbConnectionOptions userOptions)
   at System.Data.ProviderBase.DbConnectionInternal.OpenConnection(DbConnection outerConnection, DbConnectionFactory connectionFactory)
   at System.Data.Odbc.OdbcConnection.Open()
   at System.Data.Common.DbDataAdapter.FillInternal(DataSet dataset, DataTable[] datatables, Int32 startRecord, Int32 maxRecords, String srcTable, IDbCommand command, CommandBehavior behavior)
   at System.Data.Common.DbDataAdapter.Fill(DataSet dataSet, Int32 startRecord, Int32 maxRecords, String srcTable, IDbCommand command, CommandBehavior behavior)
   at System.Data.Common.DbDataAdapter.Fill(DataSet dataSet)
   at iTECH.Library.DataAccess.ODBC.ODBCHelper.ExecuteDataset(OdbcConnection con, String commandText, CommandType cmdType, OdbcParameter[] parameters)
   at iTECH.Library.DataAccess.ODBC.DbHelper.GetDataSet(String strSql, CommandType cmdType, OdbcParameter[] parameters)
   at iTECH.Library.DataAccess.ODBC.DbHelper.GetDataTable(String strSql, CommandType cmdType, OdbcParameter[] parameters)
   at SecureFTP.tctipd.GetPoDetails(Int32 iPoNumber, Int32 iItem) in E:\Sumit iTech\Project Code\SkyLineEDI\Code\SkylineEdiVer2\SecureFTP\Utility\tctipd.cs:line 174
------------------------
-------- 26-02-2020 15:15:45 --------
iTECH InBiz EDI application is unable to read the incoming EDI file. Please contact iTECH support for more details.
Detail error message..

System Name :MRINAL
File ID :1
File Name :
newXml856.xml
Stack Trace :
   at System.Data.Odbc.OdbcConnection.HandleError(OdbcHandle hrHandle, RetCode retcode)
   at System.Data.Odbc.OdbcConnectionHandle..ctor(OdbcConnection connection, OdbcConnectionString constr, OdbcEnvironmentHandle environmentHandle)
   at System.Data.Odbc.OdbcConnectionOpen..ctor(OdbcConnection outerConnection, OdbcConnectionString connectionOptions)
   at System.Data.Odbc.OdbcConnectionFactory.CreateConnection(DbConnectionOptions options, DbConnectionPoolKey poolKey, Object poolGroupProviderInfo, DbConnectionPool pool, DbConnection owningObject)
   at System.Data.ProviderBase.DbConnectionFactory.CreateConnection(DbConnectionOptions options, DbConnectionPoolKey poolKey, Object poolGroupProviderInfo, DbConnectionPool pool, DbConnection owningConnection, DbConnectionOptions userOptions)
   at System.Data.ProviderBase.DbConnectionFactory.CreateNonPooledConnection(DbConnection owningConnection, DbConnectionPoolGroup poolGroup, DbConnectionOptions userOptions)
   at System.Data.ProviderBase.DbConnectionFactory.TryGetConnection(DbConnection owningConnection, TaskCompletionSource`1 retry, DbConnectionOptions userOptions, DbConnectionInternal oldConnection, DbConnectionInternal& connection)
   at System.Data.ProviderBase.DbConnectionInternal.TryOpenConnectionInternal(DbConnection outerConnection, DbConnectionFactory connectionFactory, TaskCompletionSource`1 retry, DbConnectionOptions userOptions)
   at System.Data.ProviderBase.DbConnectionClosed.TryOpenConnection(DbConnection outerConnection, DbConnectionFactory connectionFactory, TaskCompletionSource`1 retry, DbConnectionOptions userOptions)
   at System.Data.ProviderBase.DbConnectionInternal.OpenConnection(DbConnection outerConnection, DbConnectionFactory connectionFactory)
   at System.Data.Odbc.OdbcConnection.Open()
   at System.Data.Common.DbDataAdapter.FillInternal(DataSet dataset, DataTable[] datatables, Int32 startRecord, Int32 maxRecords, String srcTable, IDbCommand command, CommandBehavior behavior)
   at System.Data.Common.DbDataAdapter.Fill(DataSet dataSet, Int32 startRecord, Int32 maxRecords, String srcTable, IDbCommand command, CommandBehavior behavior)
   at System.Data.Common.DbDataAdapter.Fill(DataSet dataSet)
   at iTECH.Library.DataAccess.ODBC.ODBCHelper.ExecuteDataset(OdbcConnection con, String commandText, CommandType cmdType, OdbcParameter[] parameters)
   at iTECH.Library.DataAccess.ODBC.DbHelper.GetDataSet(String strSql, CommandType cmdType, OdbcParameter[] parameters)
   at iTECH.Library.DataAccess.ODBC.DbHelper.GetDataTable(String strSql, CommandType cmdType, OdbcParameter[] parameters)
   at SecureFTP.tctipd.GetPoDetails(Int32 iPoNumber, Int32 iItem) in E:\Sumit iTech\Project Code\SkyLineEDI\Code\SkylineEdiVer2\SecureFTP\Utility\tctipd.cs:line 174
System.Data.Odbc.OdbcException (0x80131937): ERROR [08004] [Informix][Informix ODBC Driver][Informix]Attempt to connect to database server (skydvlptrnsky) failed.
ERROR [01S00] [Informix][Informix ODBC Driver]Invalid connection string attribute.
ERROR [01S00] [Informix][Informix ODBC Driver]Invalid connection string attribute.
   at System.Data.Odbc.OdbcConnection.HandleError(OdbcHandle hrHandle, RetCode retcode)
   at System.Data.Odbc.OdbcConnectionHandle..ctor(OdbcConnection connection, OdbcConnectionString constr, OdbcEnvironmentHandle environmentHandle)
   at System.Data.Odbc.OdbcConnectionOpen..ctor(OdbcConnection outerConnection, OdbcConnectionString connectionOptions)
   at System.Data.Odbc.OdbcConnectionFactory.CreateConnection(DbConnectionOptions options, DbConnectionPoolKey poolKey, Object poolGroupProviderInfo, DbConnectionPool pool, DbConnection owningObject)
   at System.Data.ProviderBase.DbConnectionFactory.CreateConnection(DbConnectionOptions options, DbConnectionPoolKey poolKey, Object poolGroupProviderInfo, DbConnectionPool pool, DbConnection owningConnection, DbConnectionOptions userOptions)
   at System.Data.ProviderBase.DbConnectionFactory.CreateNonPooledConnection(DbConnection owningConnection, DbConnectionPoolGroup poolGroup, DbConnectionOptions userOptions)
   at System.Data.ProviderBase.DbConnectionFactory.TryGetConnection(DbConnection owningConnection, TaskCompletionSource`1 retry, DbConnectionOptions userOptions, DbConnectionInternal oldConnection, DbConnectionInternal& connection)
   at System.Data.ProviderBase.DbConnectionInternal.TryOpenConnectionInternal(DbConnection outerConnection, DbConnectionFactory connectionFactory, TaskCompletionSource`1 retry, DbConnectionOptions userOptions)
   at System.Data.ProviderBase.DbConnectionClosed.TryOpenConnection(DbConnection outerConnection, DbConnectionFactory connectionFactory, TaskCompletionSource`1 retry, DbConnectionOptions userOptions)
   at System.Data.ProviderBase.DbConnectionInternal.OpenConnection(DbConnection outerConnection, DbConnectionFactory connectionFactory)
   at System.Data.Odbc.OdbcConnection.Open()
   at System.Data.Common.DbDataAdapter.FillInternal(DataSet dataset, DataTable[] datatables, Int32 startRecord, Int32 maxRecords, String srcTable, IDbCommand command, CommandBehavior behavior)
   at System.Data.Common.DbDataAdapter.Fill(DataSet dataSet, Int32 startRecord, Int32 maxRecords, String srcTable, IDbCommand command, CommandBehavior behavior)
   at System.Data.Common.DbDataAdapter.Fill(DataSet dataSet)
   at iTECH.Library.DataAccess.ODBC.ODBCHelper.ExecuteDataset(OdbcConnection con, String commandText, CommandType cmdType, OdbcParameter[] parameters)
   at iTECH.Library.DataAccess.ODBC.DbHelper.GetDataSet(String strSql, CommandType cmdType, OdbcParameter[] parameters)
   at iTECH.Library.DataAccess.ODBC.DbHelper.GetDataTable(String strSql, CommandType cmdType, OdbcParameter[] parameters)
   at SecureFTP.tctipd.GetPoDetails(Int32 iPoNumber, Int32 iItem) in E:\Sumit iTech\Project Code\SkyLineEDI\Code\SkylineEdiVer2\SecureFTP\Utility\tctipd.cs:line 174Source of Error :

------------------------
-------- 26-02-2020 15:20:56 --------
Deatil entry m_sbSql  = .. INSERT INTO detail(HeaderId, PrntNo, PrntItm, PrntSubItm, CusRtnMthd, ShptNo, ShptTagNo, VenShptRef, OrigShpntPcs, OrigShpntMsr, OrigShptWgt, ShpGrsPcs, ShpGrsMsr, ShpGrsWgt,  Form, Grade, Size, Finish, ExtendedFinish, Width, Length, DimDsgn, InnerDia, OuterDia, WallThck, GaSize, GaType, RndmDim1, RndmDim2, RndmDim3, RndmDim4, RndmDim5, RndmDim6, RndmDim7, RndmDim8, OfcRvw, SlsCat, IntchgItm, HeatNo, ShipperNo,MultiplePoItemExist) VALUES ('20', '512373', '1', '1', '', '512373'  , '', '', '1', '0.0000', '63520.00'   , '1', '0', '63520.00', '', ''   , '', '', '', '0', '0.0'   , '', '0.0', '0.0', '0.0', '0.0'   , '', '0.0', '0.0', '0.0', '0.0', '0.0'   , '0.0', '0.0', '0.0', '0', '' , '1' , '20A0447', 'AB09065A', '1' )
------------------------
-------- 26-02-2020 15:21:15 --------
sLength = 0.0
------------------------
-------- 26-02-2020 15:26:07 --------
GetPoDetails error occured
------------------------
-------- 26-02-2020 15:26:07 --------
System.Data.Odbc.OdbcException (0x80131937): ERROR [08004] [Informix][Informix ODBC Driver][Informix]Attempt to connect to database server (skydvlptrnsky) failed.
ERROR [01S00] [Informix][Informix ODBC Driver]Invalid connection string attribute.
ERROR [01S00] [Informix][Informix ODBC Driver]Invalid connection string attribute.
   at System.Data.Odbc.OdbcConnection.HandleError(OdbcHandle hrHandle, RetCode retcode)
   at System.Data.Odbc.OdbcConnectionHandle..ctor(OdbcConnection connection, OdbcConnectionString constr, OdbcEnvironmentHandle environmentHandle)
   at System.Data.Odbc.OdbcConnectionOpen..ctor(OdbcConnection outerConnection, OdbcConnectionString connectionOptions)
   at System.Data.Odbc.OdbcConnectionFactory.CreateConnection(DbConnectionOptions options, DbConnectionPoolKey poolKey, Object poolGroupProviderInfo, DbConnectionPool pool, DbConnection owningObject)
   at System.Data.ProviderBase.DbConnectionFactory.CreateConnection(DbConnectionOptions options, DbConnectionPoolKey poolKey, Object poolGroupProviderInfo, DbConnectionPool pool, DbConnection owningConnection, DbConnectionOptions userOptions)
   at System.Data.ProviderBase.DbConnectionFactory.CreateNonPooledConnection(DbConnection owningConnection, DbConnectionPoolGroup poolGroup, DbConnectionOptions userOptions)
   at System.Data.ProviderBase.DbConnectionFactory.TryGetConnection(DbConnection owningConnection, TaskCompletionSource`1 retry, DbConnectionOptions userOptions, DbConnectionInternal oldConnection, DbConnectionInternal& connection)
   at System.Data.ProviderBase.DbConnectionInternal.TryOpenConnectionInternal(DbConnection outerConnection, DbConnectionFactory connectionFactory, TaskCompletionSource`1 retry, DbConnectionOptions userOptions)
   at System.Data.ProviderBase.DbConnectionClosed.TryOpenConnection(DbConnection outerConnection, DbConnectionFactory connectionFactory, TaskCompletionSource`1 retry, DbConnectionOptions userOptions)
   at System.Data.ProviderBase.DbConnectionInternal.OpenConnection(DbConnection outerConnection, DbConnectionFactory connectionFactory)
   at System.Data.Odbc.OdbcConnection.Open()
   at System.Data.Common.DbDataAdapter.FillInternal(DataSet dataset, DataTable[] datatables, Int32 startRecord, Int32 maxRecords, String srcTable, IDbCommand command, CommandBehavior behavior)
   at System.Data.Common.DbDataAdapter.Fill(DataSet dataSet, Int32 startRecord, Int32 maxRecords, String srcTable, IDbCommand command, CommandBehavior behavior)
   at System.Data.Common.DbDataAdapter.Fill(DataSet dataSet)
   at iTECH.Library.DataAccess.ODBC.ODBCHelper.ExecuteDataset(OdbcConnection con, String commandText, CommandType cmdType, OdbcParameter[] parameters)
   at iTECH.Library.DataAccess.ODBC.DbHelper.GetDataSet(String strSql, CommandType cmdType, OdbcParameter[] parameters)
   at iTECH.Library.DataAccess.ODBC.DbHelper.GetDataTable(String strSql, CommandType cmdType, OdbcParameter[] parameters)
   at SecureFTP.tctipd.GetPoDetails(Int32 iPoNumber, Int32 iItem) in E:\Sumit iTech\Project Code\SkyLineEDI\Code\SkylineEdiVer2\SecureFTP\Utility\tctipd.cs:line 174
------------------------
-------- 26-02-2020 15:26:07 --------
iTECH InBiz EDI application is unable to read the incoming EDI file. Please contact iTECH support for more details.
Detail error message..

System Name :MRINAL
File ID :1
File Name :
newXml856.xml
Stack Trace :
   at System.Data.Odbc.OdbcConnection.HandleError(OdbcHandle hrHandle, RetCode retcode)
   at System.Data.Odbc.OdbcConnectionHandle..ctor(OdbcConnection connection, OdbcConnectionString constr, OdbcEnvironmentHandle environmentHandle)
   at System.Data.Odbc.OdbcConnectionOpen..ctor(OdbcConnection outerConnection, OdbcConnectionString connectionOptions)
   at System.Data.Odbc.OdbcConnectionFactory.CreateConnection(DbConnectionOptions options, DbConnectionPoolKey poolKey, Object poolGroupProviderInfo, DbConnectionPool pool, DbConnection owningObject)
   at System.Data.ProviderBase.DbConnectionFactory.CreateConnection(DbConnectionOptions options, DbConnectionPoolKey poolKey, Object poolGroupProviderInfo, DbConnectionPool pool, DbConnection owningConnection, DbConnectionOptions userOptions)
   at System.Data.ProviderBase.DbConnectionFactory.CreateNonPooledConnection(DbConnection owningConnection, DbConnectionPoolGroup poolGroup, DbConnectionOptions userOptions)
   at System.Data.ProviderBase.DbConnectionFactory.TryGetConnection(DbConnection owningConnection, TaskCompletionSource`1 retry, DbConnectionOptions userOptions, DbConnectionInternal oldConnection, DbConnectionInternal& connection)
   at System.Data.ProviderBase.DbConnectionInternal.TryOpenConnectionInternal(DbConnection outerConnection, DbConnectionFactory connectionFactory, TaskCompletionSource`1 retry, DbConnectionOptions userOptions)
   at System.Data.ProviderBase.DbConnectionClosed.TryOpenConnection(DbConnection outerConnection, DbConnectionFactory connectionFactory, TaskCompletionSource`1 retry, DbConnectionOptions userOptions)
   at System.Data.ProviderBase.DbConnectionInternal.OpenConnection(DbConnection outerConnection, DbConnectionFactory connectionFactory)
   at System.Data.Odbc.OdbcConnection.Open()
   at System.Data.Common.DbDataAdapter.FillInternal(DataSet dataset, DataTable[] datatables, Int32 startRecord, Int32 maxRecords, String srcTable, IDbCommand command, CommandBehavior behavior)
   at System.Data.Common.DbDataAdapter.Fill(DataSet dataSet, Int32 startRecord, Int32 maxRecords, String srcTable, IDbCommand command, CommandBehavior behavior)
   at System.Data.Common.DbDataAdapter.Fill(DataSet dataSet)
   at iTECH.Library.DataAccess.ODBC.ODBCHelper.ExecuteDataset(OdbcConnection con, String commandText, CommandType cmdType, OdbcParameter[] parameters)
   at iTECH.Library.DataAccess.ODBC.DbHelper.GetDataSet(String strSql, CommandType cmdType, OdbcParameter[] parameters)
   at iTECH.Library.DataAccess.ODBC.DbHelper.GetDataTable(String strSql, CommandType cmdType, OdbcParameter[] parameters)
   at SecureFTP.tctipd.GetPoDetails(Int32 iPoNumber, Int32 iItem) in E:\Sumit iTech\Project Code\SkyLineEDI\Code\SkylineEdiVer2\SecureFTP\Utility\tctipd.cs:line 174
System.Data.Odbc.OdbcException (0x80131937): ERROR [08004] [Informix][Informix ODBC Driver][Informix]Attempt to connect to database server (skydvlptrnsky) failed.
ERROR [01S00] [Informix][Informix ODBC Driver]Invalid connection string attribute.
ERROR [01S00] [Informix][Informix ODBC Driver]Invalid connection string attribute.
   at System.Data.Odbc.OdbcConnection.HandleError(OdbcHandle hrHandle, RetCode retcode)
   at System.Data.Odbc.OdbcConnectionHandle..ctor(OdbcConnection connection, OdbcConnectionString constr, OdbcEnvironmentHandle environmentHandle)
   at System.Data.Odbc.OdbcConnectionOpen..ctor(OdbcConnection outerConnection, OdbcConnectionString connectionOptions)
   at System.Data.Odbc.OdbcConnectionFactory.CreateConnection(DbConnectionOptions options, DbConnectionPoolKey poolKey, Object poolGroupProviderInfo, DbConnectionPool pool, DbConnection owningObject)
   at System.Data.ProviderBase.DbConnectionFactory.CreateConnection(DbConnectionOptions options, DbConnectionPoolKey poolKey, Object poolGroupProviderInfo, DbConnectionPool pool, DbConnection owningConnection, DbConnectionOptions userOptions)
   at System.Data.ProviderBase.DbConnectionFactory.CreateNonPooledConnection(DbConnection owningConnection, DbConnectionPoolGroup poolGroup, DbConnectionOptions userOptions)
   at System.Data.ProviderBase.DbConnectionFactory.TryGetConnection(DbConnection owningConnection, TaskCompletionSource`1 retry, DbConnectionOptions userOptions, DbConnectionInternal oldConnection, DbConnectionInternal& connection)
   at System.Data.ProviderBase.DbConnectionInternal.TryOpenConnectionInternal(DbConnection outerConnection, DbConnectionFactory connectionFactory, TaskCompletionSource`1 retry, DbConnectionOptions userOptions)
   at System.Data.ProviderBase.DbConnectionClosed.TryOpenConnection(DbConnection outerConnection, DbConnectionFactory connectionFactory, TaskCompletionSource`1 retry, DbConnectionOptions userOptions)
   at System.Data.ProviderBase.DbConnectionInternal.OpenConnection(DbConnection outerConnection, DbConnectionFactory connectionFactory)
   at System.Data.Odbc.OdbcConnection.Open()
   at System.Data.Common.DbDataAdapter.FillInternal(DataSet dataset, DataTable[] datatables, Int32 startRecord, Int32 maxRecords, String srcTable, IDbCommand command, CommandBehavior behavior)
   at System.Data.Common.DbDataAdapter.Fill(DataSet dataSet, Int32 startRecord, Int32 maxRecords, String srcTable, IDbCommand command, CommandBehavior behavior)
   at System.Data.Common.DbDataAdapter.Fill(DataSet dataSet)
   at iTECH.Library.DataAccess.ODBC.ODBCHelper.ExecuteDataset(OdbcConnection con, String commandText, CommandType cmdType, OdbcParameter[] parameters)
   at iTECH.Library.DataAccess.ODBC.DbHelper.GetDataSet(String strSql, CommandType cmdType, OdbcParameter[] parameters)
   at iTECH.Library.DataAccess.ODBC.DbHelper.GetDataTable(String strSql, CommandType cmdType, OdbcParameter[] parameters)
   at SecureFTP.tctipd.GetPoDetails(Int32 iPoNumber, Int32 iItem) in E:\Sumit iTech\Project Code\SkyLineEDI\Code\SkylineEdiVer2\SecureFTP\Utility\tctipd.cs:line 174Source of Error :

------------------------
-------- 26-02-2020 15:26:38 --------
GetPoDetails error occured
------------------------
-------- 26-02-2020 15:26:38 --------
System.Data.Odbc.OdbcException (0x80131937): ERROR [08004] [Informix][Informix ODBC Driver][Informix]Attempt to connect to database server (skydvlptrnsky) failed.
ERROR [01S00] [Informix][Informix ODBC Driver]Invalid connection string attribute.
ERROR [01S00] [Informix][Informix ODBC Driver]Invalid connection string attribute.
   at System.Data.Odbc.OdbcConnection.HandleError(OdbcHandle hrHandle, RetCode retcode)
   at System.Data.Odbc.OdbcConnectionHandle..ctor(OdbcConnection connection, OdbcConnectionString constr, OdbcEnvironmentHandle environmentHandle)
   at System.Data.Odbc.OdbcConnectionOpen..ctor(OdbcConnection outerConnection, OdbcConnectionString connectionOptions)
   at System.Data.Odbc.OdbcConnectionFactory.CreateConnection(DbConnectionOptions options, DbConnectionPoolKey poolKey, Object poolGroupProviderInfo, DbConnectionPool pool, DbConnection owningObject)
   at System.Data.ProviderBase.DbConnectionFactory.CreateConnection(DbConnectionOptions options, DbConnectionPoolKey poolKey, Object poolGroupProviderInfo, DbConnectionPool pool, DbConnection owningConnection, DbConnectionOptions userOptions)
   at System.Data.ProviderBase.DbConnectionFactory.CreateNonPooledConnection(DbConnection owningConnection, DbConnectionPoolGroup poolGroup, DbConnectionOptions userOptions)
   at System.Data.ProviderBase.DbConnectionFactory.TryGetConnection(DbConnection owningConnection, TaskCompletionSource`1 retry, DbConnectionOptions userOptions, DbConnectionInternal oldConnection, DbConnectionInternal& connection)
   at System.Data.ProviderBase.DbConnectionInternal.TryOpenConnectionInternal(DbConnection outerConnection, DbConnectionFactory connectionFactory, TaskCompletionSource`1 retry, DbConnectionOptions userOptions)
   at System.Data.ProviderBase.DbConnectionClosed.TryOpenConnection(DbConnection outerConnection, DbConnectionFactory connectionFactory, TaskCompletionSource`1 retry, DbConnectionOptions userOptions)
   at System.Data.ProviderBase.DbConnectionInternal.OpenConnection(DbConnection outerConnection, DbConnectionFactory connectionFactory)
   at System.Data.Odbc.OdbcConnection.Open()
   at System.Data.Common.DbDataAdapter.FillInternal(DataSet dataset, DataTable[] datatables, Int32 startRecord, Int32 maxRecords, String srcTable, IDbCommand command, CommandBehavior behavior)
   at System.Data.Common.DbDataAdapter.Fill(DataSet dataSet, Int32 startRecord, Int32 maxRecords, String srcTable, IDbCommand command, CommandBehavior behavior)
   at System.Data.Common.DbDataAdapter.Fill(DataSet dataSet)
   at iTECH.Library.DataAccess.ODBC.ODBCHelper.ExecuteDataset(OdbcConnection con, String commandText, CommandType cmdType, OdbcParameter[] parameters)
   at iTECH.Library.DataAccess.ODBC.DbHelper.GetDataSet(String strSql, CommandType cmdType, OdbcParameter[] parameters)
   at iTECH.Library.DataAccess.ODBC.DbHelper.GetDataTable(String strSql, CommandType cmdType, OdbcParameter[] parameters)
   at SecureFTP.tctipd.GetPoDetails(Int32 iPoNumber, Int32 iItem) in E:\Sumit iTech\Project Code\SkyLineEDI\Code\SkylineEdiVer2\SecureFTP\Utility\tctipd.cs:line 174
------------------------
-------- 26-02-2020 15:26:38 --------
iTECH InBiz EDI application is unable to read the incoming EDI file. Please contact iTECH support for more details.
Detail error message..

System Name :MRINAL
File ID :42

Stack Trace :
   at System.Data.Odbc.OdbcConnection.HandleError(OdbcHandle hrHandle, RetCode retcode)
   at System.Data.Odbc.OdbcConnectionHandle..ctor(OdbcConnection connection, OdbcConnectionString constr, OdbcEnvironmentHandle environmentHandle)
   at System.Data.Odbc.OdbcConnectionOpen..ctor(OdbcConnection outerConnection, OdbcConnectionString connectionOptions)
   at System.Data.Odbc.OdbcConnectionFactory.CreateConnection(DbConnectionOptions options, DbConnectionPoolKey poolKey, Object poolGroupProviderInfo, DbConnectionPool pool, DbConnection owningObject)
   at System.Data.ProviderBase.DbConnectionFactory.CreateConnection(DbConnectionOptions options, DbConnectionPoolKey poolKey, Object poolGroupProviderInfo, DbConnectionPool pool, DbConnection owningConnection, DbConnectionOptions userOptions)
   at System.Data.ProviderBase.DbConnectionFactory.CreateNonPooledConnection(DbConnection owningConnection, DbConnectionPoolGroup poolGroup, DbConnectionOptions userOptions)
   at System.Data.ProviderBase.DbConnectionFactory.TryGetConnection(DbConnection owningConnection, TaskCompletionSource`1 retry, DbConnectionOptions userOptions, DbConnectionInternal oldConnection, DbConnectionInternal& connection)
   at System.Data.ProviderBase.DbConnectionInternal.TryOpenConnectionInternal(DbConnection outerConnection, DbConnectionFactory connectionFactory, TaskCompletionSource`1 retry, DbConnectionOptions userOptions)
   at System.Data.ProviderBase.DbConnectionClosed.TryOpenConnection(DbConnection outerConnection, DbConnectionFactory connectionFactory, TaskCompletionSource`1 retry, DbConnectionOptions userOptions)
   at System.Data.ProviderBase.DbConnectionInternal.OpenConnection(DbConnection outerConnection, DbConnectionFactory connectionFactory)
   at System.Data.Odbc.OdbcConnection.Open()
   at System.Data.Common.DbDataAdapter.FillInternal(DataSet dataset, DataTable[] datatables, Int32 startRecord, Int32 maxRecords, String srcTable, IDbCommand command, CommandBehavior behavior)
   at System.Data.Common.DbDataAdapter.Fill(DataSet dataSet, Int32 startRecord, Int32 maxRecords, String srcTable, IDbCommand command, CommandBehavior behavior)
   at System.Data.Common.DbDataAdapter.Fill(DataSet dataSet)
   at iTECH.Library.DataAccess.ODBC.ODBCHelper.ExecuteDataset(OdbcConnection con, String commandText, CommandType cmdType, OdbcParameter[] parameters)
   at iTECH.Library.DataAccess.ODBC.DbHelper.GetDataSet(String strSql, CommandType cmdType, OdbcParameter[] parameters)
   at iTECH.Library.DataAccess.ODBC.DbHelper.GetDataTable(String strSql, CommandType cmdType, OdbcParameter[] parameters)
   at SecureFTP.tctipd.GetPoDetails(Int32 iPoNumber, Int32 iItem) in E:\Sumit iTech\Project Code\SkyLineEDI\Code\SkylineEdiVer2\SecureFTP\Utility\tctipd.cs:line 174
System.Data.Odbc.OdbcException (0x80131937): ERROR [08004] [Informix][Informix ODBC Driver][Informix]Attempt to connect to database server (skydvlptrnsky) failed.
ERROR [01S00] [Informix][Informix ODBC Driver]Invalid connection string attribute.
ERROR [01S00] [Informix][Informix ODBC Driver]Invalid connection string attribute.
   at System.Data.Odbc.OdbcConnection.HandleError(OdbcHandle hrHandle, RetCode retcode)
   at System.Data.Odbc.OdbcConnectionHandle..ctor(OdbcConnection connection, OdbcConnectionString constr, OdbcEnvironmentHandle environmentHandle)
   at System.Data.Odbc.OdbcConnectionOpen..ctor(OdbcConnection outerConnection, OdbcConnectionString connectionOptions)
   at System.Data.Odbc.OdbcConnectionFactory.CreateConnection(DbConnectionOptions options, DbConnectionPoolKey poolKey, Object poolGroupProviderInfo, DbConnectionPool pool, DbConnection owningObject)
   at System.Data.ProviderBase.DbConnectionFactory.CreateConnection(DbConnectionOptions options, DbConnectionPoolKey poolKey, Object poolGroupProviderInfo, DbConnectionPool pool, DbConnection owningConnection, DbConnectionOptions userOptions)
   at System.Data.ProviderBase.DbConnectionFactory.CreateNonPooledConnection(DbConnection owningConnection, DbConnectionPoolGroup poolGroup, DbConnectionOptions userOptions)
   at System.Data.ProviderBase.DbConnectionFactory.TryGetConnection(DbConnection owningConnection, TaskCompletionSource`1 retry, DbConnectionOptions userOptions, DbConnectionInternal oldConnection, DbConnectionInternal& connection)
   at System.Data.ProviderBase.DbConnectionInternal.TryOpenConnectionInternal(DbConnection outerConnection, DbConnectionFactory connectionFactory, TaskCompletionSource`1 retry, DbConnectionOptions userOptions)
   at System.Data.ProviderBase.DbConnectionClosed.TryOpenConnection(DbConnection outerConnection, DbConnectionFactory connectionFactory, TaskCompletionSource`1 retry, DbConnectionOptions userOptions)
   at System.Data.ProviderBase.DbConnectionInternal.OpenConnection(DbConnection outerConnection, DbConnectionFactory connectionFactory)
   at System.Data.Odbc.OdbcConnection.Open()
   at System.Data.Common.DbDataAdapter.FillInternal(DataSet dataset, DataTable[] datatables, Int32 startRecord, Int32 maxRecords, String srcTable, IDbCommand command, CommandBehavior behavior)
   at System.Data.Common.DbDataAdapter.Fill(DataSet dataSet, Int32 startRecord, Int32 maxRecords, String srcTable, IDbCommand command, CommandBehavior behavior)
   at System.Data.Common.DbDataAdapter.Fill(DataSet dataSet)
   at iTECH.Library.DataAccess.ODBC.ODBCHelper.ExecuteDataset(OdbcConnection con, String commandText, CommandType cmdType, OdbcParameter[] parameters)
   at iTECH.Library.DataAccess.ODBC.DbHelper.GetDataSet(String strSql, CommandType cmdType, OdbcParameter[] parameters)
   at iTECH.Library.DataAccess.ODBC.DbHelper.GetDataTable(String strSql, CommandType cmdType, OdbcParameter[] parameters)
   at SecureFTP.tctipd.GetPoDetails(Int32 iPoNumber, Int32 iItem) in E:\Sumit iTech\Project Code\SkyLineEDI\Code\SkylineEdiVer2\SecureFTP\Utility\tctipd.cs:line 174Source of Error :

------------------------
-------- 26-02-2020 15:34:21 --------
m_iWarehouse = 0&& sStratixTagid = 0A3543
------------------------
-------- 26-02-2020 15:38:25 --------
 INSERT INTO detailitem  (DetailId,HeaderId,CmpyId,IntchgPfx,IntchgNo,IntchgItm,IntchgSitm,Form,Grid,Size,Finish,EfEver,  Length,DimDsgn,Idia,GaSize,GaType,RdmDim1,RdmDim2,RdmDim3,RdmDim4,RdmDim5,RdmDim6,RdmDim7,RdmDim8,ImgDocFmt,  UsbWdth1,UsbLength1,UsbArea1,UsbWdth2,UsbLength2,UsbArea2,UsbWdth3,UsbLength3,UsbArea3,UsbWdth4,  UsbArea4,UsbWdth5,UsbLength5,UsbArea5,UsbWdth6,UsbLength6,UsbArea6,UsbWdth7,UsbLength7,UsbArea7,UsbWdth8,  UsbLength8,UsbArea8,UsbWdth9,UsbLength9,UsbArea9,UsbWdth10,UsbLength10,UsbArea10,TagNo,Mill,Heat,MillId,InvtType,  RjctRsn,RjctLgnId,RjctRmk,InvtQlty,Loc,InvtPcs,InvtMsr,InvtWgt,InvtPcsTyp,InvtMsrTyp,InvtWgtTyp,ShpntPcs,  ShpntMsr,ShpntWgt,ShpntPcsTyp,ShpntMsrTyp,ShpntWgtTyp,Pkg,RcvdTrWgt,BlgWdth,ActWdth1,ActWdth2,ActLgth1,ActLgth2,  ActIdia1,ActIdia2,ActOdia1,ActOdia2,ActGa1,ActGa2,ActDiag1,ActDiag2,ActSq,ActFltns1,ActFltns2,CutNo,I55Id,I55Od,  CoilLength,CoilLengthTyp,PartCoilIndc,ProdFor,PartCusId,Part,PartRevNo,PartAcs,CertRcvd,CusTagNo,PrdCst,ClaimNo,  NcrPfx,NcrNo,NcrItm,NcrSbItm,NcrLnNo,ShpTagNo,NewRcptPfx,NewRcptNo,NewRcptItm,NewItmCtlNo)  VALUES  ( '21','20', 'STX', 'XI','','1','1', '', '', '','','','0', '', '0', '0','0','0','0', '0', '0', '0','0','0','0', '', '0', '0','0','0','0', '0', '0', '0','0','0','0', '0', '0', '0','0','0','0', '0', '0', '0','0','0','0', '0', '0', '0','0','0','0', '', 'NST', '20A0447','0A3543','0','',  '0', '','','PARKER TOWING COMPANY','1', '0.0', '63520.00', 'A','A','A','1', '0.0', '63520.00', 'A','A','A','PST', '0', '0', '0','0','0','0', '0', '0', '0','0','0','0', '0', '0', '0','0','0','', '0', '0', '0','','0','0', '0', '0', '0','0','0','', '0', '0','','0','0', '0', '0','','','0', '0', '0' ) 
------------------------
-------- 26-02-2020 15:40:41 --------
863 is disabled
------------------------
-------- 26-02-2020 15:41:09 --------
Detail  count : 1
------------------------
-------- 26-02-2020 15:41:09 --------
Detail Item count : 1
------------------------
-------- 26-02-2020 15:41:09 --------
Interchange no created for file id 42, HeaderId = '20'   :    300062
------------------------
-------- 26-02-2020 15:41:09 --------
insert into xcti53_rec (i53_cmpy_id, i53_intchg_pfx, i53_intchg_no, i53_rcpt_typ, i53_cus_ven_id, i53_cus_ven_shp, i53_rcpt_dt, i53_ven_shp_ref, i53_crr_vcl_desc, i53_rcvg_whs, i53_dlvy_mthd, i53_frt_ven_id, i53_crr_nm, i53_crr_ref_no, i53_prcpt_sts,  i53_new_rcpt_pfx, i53_new_rcpt_no, i53_ncr_pfx, i53_ncr_no)  VALUES ('STX', 'XI', '300062', 'P', '', '0', current, 'AB09065A', 'PARKER TOWING COMPANY', '', '', '', 'PARKER TOWING COMPANY', 'PARKER TOWING COMPANY','R', '', '0', '','0')
------------------------
-------- 26-02-2020 15:41:09 --------
sPreRcptStatus = R
------------------------
-------- 26-02-2020 15:41:24 --------
Error while creating pre receipt.
------------------------
-------- 26-02-2020 15:41:24 --------
System.Data.Odbc.OdbcException (0x80131937): ERROR [08004] [Informix][Informix ODBC Driver][Informix]Attempt to connect to database server (skydvlptrnsky) failed.
ERROR [01S00] [Informix][Informix ODBC Driver]Invalid connection string attribute.
ERROR [01S00] [Informix][Informix ODBC Driver]Invalid connection string attribute.
   at System.Data.Odbc.OdbcConnection.HandleError(OdbcHandle hrHandle, RetCode retcode)
   at System.Data.Odbc.OdbcConnectionHandle..ctor(OdbcConnection connection, OdbcConnectionString constr, OdbcEnvironmentHandle environmentHandle)
   at System.Data.Odbc.OdbcConnectionOpen..ctor(OdbcConnection outerConnection, OdbcConnectionString connectionOptions)
   at System.Data.Odbc.OdbcConnectionFactory.CreateConnection(DbConnectionOptions options, DbConnectionPoolKey poolKey, Object poolGroupProviderInfo, DbConnectionPool pool, DbConnection owningObject)
   at System.Data.ProviderBase.DbConnectionFactory.CreateConnection(DbConnectionOptions options, DbConnectionPoolKey poolKey, Object poolGroupProviderInfo, DbConnectionPool pool, DbConnection owningConnection, DbConnectionOptions userOptions)
   at System.Data.ProviderBase.DbConnectionFactory.CreateNonPooledConnection(DbConnection owningConnection, DbConnectionPoolGroup poolGroup, DbConnectionOptions userOptions)
   at System.Data.ProviderBase.DbConnectionFactory.TryGetConnection(DbConnection owningConnection, TaskCompletionSource`1 retry, DbConnectionOptions userOptions, DbConnectionInternal oldConnection, DbConnectionInternal& connection)
   at System.Data.ProviderBase.DbConnectionInternal.TryOpenConnectionInternal(DbConnection outerConnection, DbConnectionFactory connectionFactory, TaskCompletionSource`1 retry, DbConnectionOptions userOptions)
   at System.Data.ProviderBase.DbConnectionClosed.TryOpenConnection(DbConnection outerConnection, DbConnectionFactory connectionFactory, TaskCompletionSource`1 retry, DbConnectionOptions userOptions)
   at System.Data.ProviderBase.DbConnectionInternal.OpenConnection(DbConnection outerConnection, DbConnectionFactory connectionFactory)
   at System.Data.Odbc.OdbcConnection.Open()
   at iTECH.Library.DataAccess.ODBC.ODBCHelper.ExecuteNonQuery(OdbcConnection con, String commandText, CommandType cmdType, Boolean mustClose)
   at iTECH.Library.DataAccess.ODBC.DbHelper.ExecuteNonQuery(String strSql, CommandType cmdType)
   at SecureFTP.STX856.StartInsert() in E:\Sumit iTech\Project Code\SkyLineEDI\Code\SkylineEdiVer2\SecureFTP\STX856.cs:line 351
------------------------
-------- 26-02-2020 15:41:24 --------
iTECH InBiz EDI application is unable to process data through STRATIX. Detailed message is attached below. If you required more information, please contact iTECH support.
Detail error message..

System Name :MRINAL
File ID :42

Stack Trace :
   at System.Data.Odbc.OdbcConnection.HandleError(OdbcHandle hrHandle, RetCode retcode)
   at System.Data.Odbc.OdbcConnectionHandle..ctor(OdbcConnection connection, OdbcConnectionString constr, OdbcEnvironmentHandle environmentHandle)
   at System.Data.Odbc.OdbcConnectionOpen..ctor(OdbcConnection outerConnection, OdbcConnectionString connectionOptions)
   at System.Data.Odbc.OdbcConnectionFactory.CreateConnection(DbConnectionOptions options, DbConnectionPoolKey poolKey, Object poolGroupProviderInfo, DbConnectionPool pool, DbConnection owningObject)
   at System.Data.ProviderBase.DbConnectionFactory.CreateConnection(DbConnectionOptions options, DbConnectionPoolKey poolKey, Object poolGroupProviderInfo, DbConnectionPool pool, DbConnection owningConnection, DbConnectionOptions userOptions)
   at System.Data.ProviderBase.DbConnectionFactory.CreateNonPooledConnection(DbConnection owningConnection, DbConnectionPoolGroup poolGroup, DbConnectionOptions userOptions)
   at System.Data.ProviderBase.DbConnectionFactory.TryGetConnection(DbConnection owningConnection, TaskCompletionSource`1 retry, DbConnectionOptions userOptions, DbConnectionInternal oldConnection, DbConnectionInternal& connection)
   at System.Data.ProviderBase.DbConnectionInternal.TryOpenConnectionInternal(DbConnection outerConnection, DbConnectionFactory connectionFactory, TaskCompletionSource`1 retry, DbConnectionOptions userOptions)
   at System.Data.ProviderBase.DbConnectionClosed.TryOpenConnection(DbConnection outerConnection, DbConnectionFactory connectionFactory, TaskCompletionSource`1 retry, DbConnectionOptions userOptions)
   at System.Data.ProviderBase.DbConnectionInternal.OpenConnection(DbConnection outerConnection, DbConnectionFactory connectionFactory)
   at System.Data.Odbc.OdbcConnection.Open()
   at iTECH.Library.DataAccess.ODBC.ODBCHelper.ExecuteNonQuery(OdbcConnection con, String commandText, CommandType cmdType, Boolean mustClose)
   at iTECH.Library.DataAccess.ODBC.DbHelper.ExecuteNonQuery(String strSql, CommandType cmdType)
   at SecureFTP.STX856.StartInsert() in E:\Sumit iTech\Project Code\SkyLineEDI\Code\SkylineEdiVer2\SecureFTP\STX856.cs:line 351
System.Data.Odbc.OdbcException (0x80131937): ERROR [08004] [Informix][Informix ODBC Driver][Informix]Attempt to connect to database server (skydvlptrnsky) failed.
ERROR [01S00] [Informix][Informix ODBC Driver]Invalid connection string attribute.
ERROR [01S00] [Informix][Informix ODBC Driver]Invalid connection string attribute.
   at System.Data.Odbc.OdbcConnection.HandleError(OdbcHandle hrHandle, RetCode retcode)
   at System.Data.Odbc.OdbcConnectionHandle..ctor(OdbcConnection connection, OdbcConnectionString constr, OdbcEnvironmentHandle environmentHandle)
   at System.Data.Odbc.OdbcConnectionOpen..ctor(OdbcConnection outerConnection, OdbcConnectionString connectionOptions)
   at System.Data.Odbc.OdbcConnectionFactory.CreateConnection(DbConnectionOptions options, DbConnectionPoolKey poolKey, Object poolGroupProviderInfo, DbConnectionPool pool, DbConnection owningObject)
   at System.Data.ProviderBase.DbConnectionFactory.CreateConnection(DbConnectionOptions options, DbConnectionPoolKey poolKey, Object poolGroupProviderInfo, DbConnectionPool pool, DbConnection owningConnection, DbConnectionOptions userOptions)
   at System.Data.ProviderBase.DbConnectionFactory.CreateNonPooledConnection(DbConnection owningConnection, DbConnectionPoolGroup poolGroup, DbConnectionOptions userOptions)
   at System.Data.ProviderBase.DbConnectionFactory.TryGetConnection(DbConnection owningConnection, TaskCompletionSource`1 retry, DbConnectionOptions userOptions, DbConnectionInternal oldConnection, DbConnectionInternal& connection)
   at System.Data.ProviderBase.DbConnectionInternal.TryOpenConnectionInternal(DbConnection outerConnection, DbConnectionFactory connectionFactory, TaskCompletionSource`1 retry, DbConnectionOptions userOptions)
   at System.Data.ProviderBase.DbConnectionClosed.TryOpenConnection(DbConnection outerConnection, DbConnectionFactory connectionFactory, TaskCompletionSource`1 retry, DbConnectionOptions userOptions)
   at System.Data.ProviderBase.DbConnectionInternal.OpenConnection(DbConnection outerConnection, DbConnectionFactory connectionFactory)
   at System.Data.Odbc.OdbcConnection.Open()
   at iTECH.Library.DataAccess.ODBC.ODBCHelper.ExecuteNonQuery(OdbcConnection con, String commandText, CommandType cmdType, Boolean mustClose)
   at iTECH.Library.DataAccess.ODBC.DbHelper.ExecuteNonQuery(String strSql, CommandType cmdType)
   at SecureFTP.STX856.StartInsert() in E:\Sumit iTech\Project Code\SkyLineEDI\Code\SkylineEdiVer2\SecureFTP\STX856.cs:line 351Source of Error :

------------------------
-------- 26-02-2020 19:16:00 --------
m_sFileType = 856863
------------------------
-------- 26-02-2020 19:16:03 --------
select i53_new_rcpt_no from XCTI53_rec where i53_intchg_no =0
------------------------
-------- 26-02-2020 19:16:31 --------
XML PROCESSING START FILE ID 0
------------------------
-------- 26-02-2020 19:19:34 --------
Select first 1 pod_shp_to_whs,pod_frt_ven_id from potpod_rec where pod_cmpy_id =  'STX' and pod_po_pfx= 'PO' and pod_po_no = '512373'
------------------------
-------- 26-02-2020 19:19:59 --------
 UPDATE header set RcvWhs = '', VenShpRef = 'AB09065A', CarrierName = 'PARKER TOWING COMPANY', CarrierVehicleDesc = 'PARKER TOWING COMPANY'  WHERE  HeaderId = 21
------------------------
-------- 26-02-2020 19:20:23 --------
GetPoDetails error occured
------------------------
-------- 26-02-2020 19:20:23 --------
System.Data.Odbc.OdbcException (0x80131937): ERROR [08004] [Informix][Informix ODBC Driver][Informix]Attempt to connect to database server (skydvlptrnsky) failed.
ERROR [01S00] [Informix][Informix ODBC Driver]Invalid connection string attribute.
ERROR [01S00] [Informix][Informix ODBC Driver]Invalid connection string attribute.
   at System.Data.Odbc.OdbcConnection.HandleError(OdbcHandle hrHandle, RetCode retcode)
   at System.Data.Odbc.OdbcConnectionHandle..ctor(OdbcConnection connection, OdbcConnectionString constr, OdbcEnvironmentHandle environmentHandle)
   at System.Data.Odbc.OdbcConnectionOpen..ctor(OdbcConnection outerConnection, OdbcConnectionString connectionOptions)
   at System.Data.Odbc.OdbcConnectionFactory.CreateConnection(DbConnectionOptions options, DbConnectionPoolKey poolKey, Object poolGroupProviderInfo, DbConnectionPool pool, DbConnection owningObject)
   at System.Data.ProviderBase.DbConnectionFactory.CreateConnection(DbConnectionOptions options, DbConnectionPoolKey poolKey, Object poolGroupProviderInfo, DbConnectionPool pool, DbConnection owningConnection, DbConnectionOptions userOptions)
   at System.Data.ProviderBase.DbConnectionFactory.CreateNonPooledConnection(DbConnection owningConnection, DbConnectionPoolGroup poolGroup, DbConnectionOptions userOptions)
   at System.Data.ProviderBase.DbConnectionFactory.TryGetConnection(DbConnection owningConnection, TaskCompletionSource`1 retry, DbConnectionOptions userOptions, DbConnectionInternal oldConnection, DbConnectionInternal& connection)
   at System.Data.ProviderBase.DbConnectionInternal.TryOpenConnectionInternal(DbConnection outerConnection, DbConnectionFactory connectionFactory, TaskCompletionSource`1 retry, DbConnectionOptions userOptions)
   at System.Data.ProviderBase.DbConnectionClosed.TryOpenConnection(DbConnection outerConnection, DbConnectionFactory connectionFactory, TaskCompletionSource`1 retry, DbConnectionOptions userOptions)
   at System.Data.ProviderBase.DbConnectionInternal.OpenConnection(DbConnection outerConnection, DbConnectionFactory connectionFactory)
   at System.Data.Odbc.OdbcConnection.Open()
   at System.Data.Common.DbDataAdapter.FillInternal(DataSet dataset, DataTable[] datatables, Int32 startRecord, Int32 maxRecords, String srcTable, IDbCommand command, CommandBehavior behavior)
   at System.Data.Common.DbDataAdapter.Fill(DataSet dataSet, Int32 startRecord, Int32 maxRecords, String srcTable, IDbCommand command, CommandBehavior behavior)
   at System.Data.Common.DbDataAdapter.Fill(DataSet dataSet)
   at iTECH.Library.DataAccess.ODBC.ODBCHelper.ExecuteDataset(OdbcConnection con, String commandText, CommandType cmdType, OdbcParameter[] parameters)
   at iTECH.Library.DataAccess.ODBC.DbHelper.GetDataSet(String strSql, CommandType cmdType, OdbcParameter[] parameters)
   at iTECH.Library.DataAccess.ODBC.DbHelper.GetDataTable(String strSql, CommandType cmdType, OdbcParameter[] parameters)
   at SecureFTP.tctipd.GetPoDetails(Int32 iPoNumber, Int32 iItem) in E:\Sumit iTech\Project Code\SkyLineEDI\Code\SkylineEdiVer2\SecureFTP\Utility\tctipd.cs:line 174
------------------------
-------- 26-02-2020 19:20:23 --------
iTECH InBiz EDI application is unable to read the incoming EDI file. Please contact iTECH support for more details.
Detail error message..

System Name :MRINAL
File ID :1
File Name :
newXml856.xml
Stack Trace :
   at System.Data.Odbc.OdbcConnection.HandleError(OdbcHandle hrHandle, RetCode retcode)
   at System.Data.Odbc.OdbcConnectionHandle..ctor(OdbcConnection connection, OdbcConnectionString constr, OdbcEnvironmentHandle environmentHandle)
   at System.Data.Odbc.OdbcConnectionOpen..ctor(OdbcConnection outerConnection, OdbcConnectionString connectionOptions)
   at System.Data.Odbc.OdbcConnectionFactory.CreateConnection(DbConnectionOptions options, DbConnectionPoolKey poolKey, Object poolGroupProviderInfo, DbConnectionPool pool, DbConnection owningObject)
   at System.Data.ProviderBase.DbConnectionFactory.CreateConnection(DbConnectionOptions options, DbConnectionPoolKey poolKey, Object poolGroupProviderInfo, DbConnectionPool pool, DbConnection owningConnection, DbConnectionOptions userOptions)
   at System.Data.ProviderBase.DbConnectionFactory.CreateNonPooledConnection(DbConnection owningConnection, DbConnectionPoolGroup poolGroup, DbConnectionOptions userOptions)
   at System.Data.ProviderBase.DbConnectionFactory.TryGetConnection(DbConnection owningConnection, TaskCompletionSource`1 retry, DbConnectionOptions userOptions, DbConnectionInternal oldConnection, DbConnectionInternal& connection)
   at System.Data.ProviderBase.DbConnectionInternal.TryOpenConnectionInternal(DbConnection outerConnection, DbConnectionFactory connectionFactory, TaskCompletionSource`1 retry, DbConnectionOptions userOptions)
   at System.Data.ProviderBase.DbConnectionClosed.TryOpenConnection(DbConnection outerConnection, DbConnectionFactory connectionFactory, TaskCompletionSource`1 retry, DbConnectionOptions userOptions)
   at System.Data.ProviderBase.DbConnectionInternal.OpenConnection(DbConnection outerConnection, DbConnectionFactory connectionFactory)
   at System.Data.Odbc.OdbcConnection.Open()
   at System.Data.Common.DbDataAdapter.FillInternal(DataSet dataset, DataTable[] datatables, Int32 startRecord, Int32 maxRecords, String srcTable, IDbCommand command, CommandBehavior behavior)
   at System.Data.Common.DbDataAdapter.Fill(DataSet dataSet, Int32 startRecord, Int32 maxRecords, String srcTable, IDbCommand command, CommandBehavior behavior)
   at System.Data.Common.DbDataAdapter.Fill(DataSet dataSet)
   at iTECH.Library.DataAccess.ODBC.ODBCHelper.ExecuteDataset(OdbcConnection con, String commandText, CommandType cmdType, OdbcParameter[] parameters)
   at iTECH.Library.DataAccess.ODBC.DbHelper.GetDataSet(String strSql, CommandType cmdType, OdbcParameter[] parameters)
   at iTECH.Library.DataAccess.ODBC.DbHelper.GetDataTable(String strSql, CommandType cmdType, OdbcParameter[] parameters)
   at SecureFTP.tctipd.GetPoDetails(Int32 iPoNumber, Int32 iItem) in E:\Sumit iTech\Project Code\SkyLineEDI\Code\SkylineEdiVer2\SecureFTP\Utility\tctipd.cs:line 174
System.Data.Odbc.OdbcException (0x80131937): ERROR [08004] [Informix][Informix ODBC Driver][Informix]Attempt to connect to database server (skydvlptrnsky) failed.
ERROR [01S00] [Informix][Informix ODBC Driver]Invalid connection string attribute.
ERROR [01S00] [Informix][Informix ODBC Driver]Invalid connection string attribute.
   at System.Data.Odbc.OdbcConnection.HandleError(OdbcHandle hrHandle, RetCode retcode)
   at System.Data.Odbc.OdbcConnectionHandle..ctor(OdbcConnection connection, OdbcConnectionString constr, OdbcEnvironmentHandle environmentHandle)
   at System.Data.Odbc.OdbcConnectionOpen..ctor(OdbcConnection outerConnection, OdbcConnectionString connectionOptions)
   at System.Data.Odbc.OdbcConnectionFactory.CreateConnection(DbConnectionOptions options, DbConnectionPoolKey poolKey, Object poolGroupProviderInfo, DbConnectionPool pool, DbConnection owningObject)
   at System.Data.ProviderBase.DbConnectionFactory.CreateConnection(DbConnectionOptions options, DbConnectionPoolKey poolKey, Object poolGroupProviderInfo, DbConnectionPool pool, DbConnection owningConnection, DbConnectionOptions userOptions)
   at System.Data.ProviderBase.DbConnectionFactory.CreateNonPooledConnection(DbConnection owningConnection, DbConnectionPoolGroup poolGroup, DbConnectionOptions userOptions)
   at System.Data.ProviderBase.DbConnectionFactory.TryGetConnection(DbConnection owningConnection, TaskCompletionSource`1 retry, DbConnectionOptions userOptions, DbConnectionInternal oldConnection, DbConnectionInternal& connection)
   at System.Data.ProviderBase.DbConnectionInternal.TryOpenConnectionInternal(DbConnection outerConnection, DbConnectionFactory connectionFactory, TaskCompletionSource`1 retry, DbConnectionOptions userOptions)
   at System.Data.ProviderBase.DbConnectionClosed.TryOpenConnection(DbConnection outerConnection, DbConnectionFactory connectionFactory, TaskCompletionSource`1 retry, DbConnectionOptions userOptions)
   at System.Data.ProviderBase.DbConnectionInternal.OpenConnection(DbConnection outerConnection, DbConnectionFactory connectionFactory)
   at System.Data.Odbc.OdbcConnection.Open()
   at System.Data.Common.DbDataAdapter.FillInternal(DataSet dataset, DataTable[] datatables, Int32 startRecord, Int32 maxRecords, String srcTable, IDbCommand command, CommandBehavior behavior)
   at System.Data.Common.DbDataAdapter.Fill(DataSet dataSet, Int32 startRecord, Int32 maxRecords, String srcTable, IDbCommand command, CommandBehavior behavior)
   at System.Data.Common.DbDataAdapter.Fill(DataSet dataSet)
   at iTECH.Library.DataAccess.ODBC.ODBCHelper.ExecuteDataset(OdbcConnection con, String commandText, CommandType cmdType, OdbcParameter[] parameters)
   at iTECH.Library.DataAccess.ODBC.DbHelper.GetDataSet(String strSql, CommandType cmdType, OdbcParameter[] parameters)
   at iTECH.Library.DataAccess.ODBC.DbHelper.GetDataTable(String strSql, CommandType cmdType, OdbcParameter[] parameters)
   at SecureFTP.tctipd.GetPoDetails(Int32 iPoNumber, Int32 iItem) in E:\Sumit iTech\Project Code\SkyLineEDI\Code\SkylineEdiVer2\SecureFTP\Utility\tctipd.cs:line 174Source of Error :

------------------------
-------- 26-02-2020 19:21:55 --------
Deatil entry m_sbSql  = .. INSERT INTO detail(HeaderId, PrntNo, PrntItm, PrntSubItm, CusRtnMthd, ShptNo, ShptTagNo, VenShptRef, OrigShpntPcs, OrigShpntMsr, OrigShptWgt, ShpGrsPcs, ShpGrsMsr, ShpGrsWgt,  Form, Grade, Size, Finish, ExtendedFinish, Width, Length, DimDsgn, InnerDia, OuterDia, WallThck, GaSize, GaType, RndmDim1, RndmDim2, RndmDim3, RndmDim4, RndmDim5, RndmDim6, RndmDim7, RndmDim8, OfcRvw, SlsCat, IntchgItm, HeatNo, ShipperNo,MultiplePoItemExist) VALUES ('21', '512373', '1', '1', '', '512373'  , '', '', '1', '0.0000', '63520.00'   , '1', '0', '63520.00', '', ''   , '', '', '', '0', '0.0'   , '', '0.0', '0.0', '0.0', '0.0'   , '', '0.0', '0.0', '0.0', '0.0', '0.0'   , '0.0', '0.0', '0.0', '0', '' , '1' , '20A0447', 'AB09065A', '1' )
------------------------
-------- 26-02-2020 19:23:50 --------
sLength = 0.0
------------------------
-------- 26-02-2020 19:24:09 --------
GetPoDetails error occured
------------------------
-------- 26-02-2020 19:24:09 --------
System.Data.Odbc.OdbcException (0x80131937): ERROR [08004] [Informix][Informix ODBC Driver][Informix]Attempt to connect to database server (skydvlptrnsky) failed.
ERROR [01S00] [Informix][Informix ODBC Driver]Invalid connection string attribute.
ERROR [01S00] [Informix][Informix ODBC Driver]Invalid connection string attribute.
   at System.Data.Odbc.OdbcConnection.HandleError(OdbcHandle hrHandle, RetCode retcode)
   at System.Data.Odbc.OdbcConnectionHandle..ctor(OdbcConnection connection, OdbcConnectionString constr, OdbcEnvironmentHandle environmentHandle)
   at System.Data.Odbc.OdbcConnectionOpen..ctor(OdbcConnection outerConnection, OdbcConnectionString connectionOptions)
   at System.Data.Odbc.OdbcConnectionFactory.CreateConnection(DbConnectionOptions options, DbConnectionPoolKey poolKey, Object poolGroupProviderInfo, DbConnectionPool pool, DbConnection owningObject)
   at System.Data.ProviderBase.DbConnectionFactory.CreateConnection(DbConnectionOptions options, DbConnectionPoolKey poolKey, Object poolGroupProviderInfo, DbConnectionPool pool, DbConnection owningConnection, DbConnectionOptions userOptions)
   at System.Data.ProviderBase.DbConnectionFactory.CreateNonPooledConnection(DbConnection owningConnection, DbConnectionPoolGroup poolGroup, DbConnectionOptions userOptions)
   at System.Data.ProviderBase.DbConnectionFactory.TryGetConnection(DbConnection owningConnection, TaskCompletionSource`1 retry, DbConnectionOptions userOptions, DbConnectionInternal oldConnection, DbConnectionInternal& connection)
   at System.Data.ProviderBase.DbConnectionInternal.TryOpenConnectionInternal(DbConnection outerConnection, DbConnectionFactory connectionFactory, TaskCompletionSource`1 retry, DbConnectionOptions userOptions)
   at System.Data.ProviderBase.DbConnectionClosed.TryOpenConnection(DbConnection outerConnection, DbConnectionFactory connectionFactory, TaskCompletionSource`1 retry, DbConnectionOptions userOptions)
   at System.Data.ProviderBase.DbConnectionInternal.OpenConnection(DbConnection outerConnection, DbConnectionFactory connectionFactory)
   at System.Data.Odbc.OdbcConnection.Open()
   at System.Data.Common.DbDataAdapter.FillInternal(DataSet dataset, DataTable[] datatables, Int32 startRecord, Int32 maxRecords, String srcTable, IDbCommand command, CommandBehavior behavior)
   at System.Data.Common.DbDataAdapter.Fill(DataSet dataSet, Int32 startRecord, Int32 maxRecords, String srcTable, IDbCommand command, CommandBehavior behavior)
   at System.Data.Common.DbDataAdapter.Fill(DataSet dataSet)
   at iTECH.Library.DataAccess.ODBC.ODBCHelper.ExecuteDataset(OdbcConnection con, String commandText, CommandType cmdType, OdbcParameter[] parameters)
   at iTECH.Library.DataAccess.ODBC.DbHelper.GetDataSet(String strSql, CommandType cmdType, OdbcParameter[] parameters)
   at iTECH.Library.DataAccess.ODBC.DbHelper.GetDataTable(String strSql, CommandType cmdType, OdbcParameter[] parameters)
   at SecureFTP.tctipd.GetPoDetails(Int32 iPoNumber, Int32 iItem) in E:\Sumit iTech\Project Code\SkyLineEDI\Code\SkylineEdiVer2\SecureFTP\Utility\tctipd.cs:line 174
------------------------
-------- 26-02-2020 19:24:09 --------
iTECH InBiz EDI application is unable to read the incoming EDI file. Please contact iTECH support for more details.
Detail error message..

System Name :MRINAL
File ID :1
File Name :
newXml856.xml
Stack Trace :
   at System.Data.Odbc.OdbcConnection.HandleError(OdbcHandle hrHandle, RetCode retcode)
   at System.Data.Odbc.OdbcConnectionHandle..ctor(OdbcConnection connection, OdbcConnectionString constr, OdbcEnvironmentHandle environmentHandle)
   at System.Data.Odbc.OdbcConnectionOpen..ctor(OdbcConnection outerConnection, OdbcConnectionString connectionOptions)
   at System.Data.Odbc.OdbcConnectionFactory.CreateConnection(DbConnectionOptions options, DbConnectionPoolKey poolKey, Object poolGroupProviderInfo, DbConnectionPool pool, DbConnection owningObject)
   at System.Data.ProviderBase.DbConnectionFactory.CreateConnection(DbConnectionOptions options, DbConnectionPoolKey poolKey, Object poolGroupProviderInfo, DbConnectionPool pool, DbConnection owningConnection, DbConnectionOptions userOptions)
   at System.Data.ProviderBase.DbConnectionFactory.CreateNonPooledConnection(DbConnection owningConnection, DbConnectionPoolGroup poolGroup, DbConnectionOptions userOptions)
   at System.Data.ProviderBase.DbConnectionFactory.TryGetConnection(DbConnection owningConnection, TaskCompletionSource`1 retry, DbConnectionOptions userOptions, DbConnectionInternal oldConnection, DbConnectionInternal& connection)
   at System.Data.ProviderBase.DbConnectionInternal.TryOpenConnectionInternal(DbConnection outerConnection, DbConnectionFactory connectionFactory, TaskCompletionSource`1 retry, DbConnectionOptions userOptions)
   at System.Data.ProviderBase.DbConnectionClosed.TryOpenConnection(DbConnection outerConnection, DbConnectionFactory connectionFactory, TaskCompletionSource`1 retry, DbConnectionOptions userOptions)
   at System.Data.ProviderBase.DbConnectionInternal.OpenConnection(DbConnection outerConnection, DbConnectionFactory connectionFactory)
   at System.Data.Odbc.OdbcConnection.Open()
   at System.Data.Common.DbDataAdapter.FillInternal(DataSet dataset, DataTable[] datatables, Int32 startRecord, Int32 maxRecords, String srcTable, IDbCommand command, CommandBehavior behavior)
   at System.Data.Common.DbDataAdapter.Fill(DataSet dataSet, Int32 startRecord, Int32 maxRecords, String srcTable, IDbCommand command, CommandBehavior behavior)
   at System.Data.Common.DbDataAdapter.Fill(DataSet dataSet)
   at iTECH.Library.DataAccess.ODBC.ODBCHelper.ExecuteDataset(OdbcConnection con, String commandText, CommandType cmdType, OdbcParameter[] parameters)
   at iTECH.Library.DataAccess.ODBC.DbHelper.GetDataSet(String strSql, CommandType cmdType, OdbcParameter[] parameters)
   at iTECH.Library.DataAccess.ODBC.DbHelper.GetDataTable(String strSql, CommandType cmdType, OdbcParameter[] parameters)
   at SecureFTP.tctipd.GetPoDetails(Int32 iPoNumber, Int32 iItem) in E:\Sumit iTech\Project Code\SkyLineEDI\Code\SkylineEdiVer2\SecureFTP\Utility\tctipd.cs:line 174
System.Data.Odbc.OdbcException (0x80131937): ERROR [08004] [Informix][Informix ODBC Driver][Informix]Attempt to connect to database server (skydvlptrnsky) failed.
ERROR [01S00] [Informix][Informix ODBC Driver]Invalid connection string attribute.
ERROR [01S00] [Informix][Informix ODBC Driver]Invalid connection string attribute.
   at System.Data.Odbc.OdbcConnection.HandleError(OdbcHandle hrHandle, RetCode retcode)
   at System.Data.Odbc.OdbcConnectionHandle..ctor(OdbcConnection connection, OdbcConnectionString constr, OdbcEnvironmentHandle environmentHandle)
   at System.Data.Odbc.OdbcConnectionOpen..ctor(OdbcConnection outerConnection, OdbcConnectionString connectionOptions)
   at System.Data.Odbc.OdbcConnectionFactory.CreateConnection(DbConnectionOptions options, DbConnectionPoolKey poolKey, Object poolGroupProviderInfo, DbConnectionPool pool, DbConnection owningObject)
   at System.Data.ProviderBase.DbConnectionFactory.CreateConnection(DbConnectionOptions options, DbConnectionPoolKey poolKey, Object poolGroupProviderInfo, DbConnectionPool pool, DbConnection owningConnection, DbConnectionOptions userOptions)
   at System.Data.ProviderBase.DbConnectionFactory.CreateNonPooledConnection(DbConnection owningConnection, DbConnectionPoolGroup poolGroup, DbConnectionOptions userOptions)
   at System.Data.ProviderBase.DbConnectionFactory.TryGetConnection(DbConnection owningConnection, TaskCompletionSource`1 retry, DbConnectionOptions userOptions, DbConnectionInternal oldConnection, DbConnectionInternal& connection)
   at System.Data.ProviderBase.DbConnectionInternal.TryOpenConnectionInternal(DbConnection outerConnection, DbConnectionFactory connectionFactory, TaskCompletionSource`1 retry, DbConnectionOptions userOptions)
   at System.Data.ProviderBase.DbConnectionClosed.TryOpenConnection(DbConnection outerConnection, DbConnectionFactory connectionFactory, TaskCompletionSource`1 retry, DbConnectionOptions userOptions)
   at System.Data.ProviderBase.DbConnectionInternal.OpenConnection(DbConnection outerConnection, DbConnectionFactory connectionFactory)
   at System.Data.Odbc.OdbcConnection.Open()
   at System.Data.Common.DbDataAdapter.FillInternal(DataSet dataset, DataTable[] datatables, Int32 startRecord, Int32 maxRecords, String srcTable, IDbCommand command, CommandBehavior behavior)
   at System.Data.Common.DbDataAdapter.Fill(DataSet dataSet, Int32 startRecord, Int32 maxRecords, String srcTable, IDbCommand command, CommandBehavior behavior)
   at System.Data.Common.DbDataAdapter.Fill(DataSet dataSet)
   at iTECH.Library.DataAccess.ODBC.ODBCHelper.ExecuteDataset(OdbcConnection con, String commandText, CommandType cmdType, OdbcParameter[] parameters)
   at iTECH.Library.DataAccess.ODBC.DbHelper.GetDataSet(String strSql, CommandType cmdType, OdbcParameter[] parameters)
   at iTECH.Library.DataAccess.ODBC.DbHelper.GetDataTable(String strSql, CommandType cmdType, OdbcParameter[] parameters)
   at SecureFTP.tctipd.GetPoDetails(Int32 iPoNumber, Int32 iItem) in E:\Sumit iTech\Project Code\SkyLineEDI\Code\SkylineEdiVer2\SecureFTP\Utility\tctipd.cs:line 174Source of Error :

------------------------
-------- 26-02-2020 19:26:39 --------
GetPoDetails error occured
------------------------
-------- 26-02-2020 19:26:39 --------
System.Data.Odbc.OdbcException (0x80131937): ERROR [08004] [Informix][Informix ODBC Driver][Informix]Attempt to connect to database server (skydvlptrnsky) failed.
ERROR [01S00] [Informix][Informix ODBC Driver]Invalid connection string attribute.
ERROR [01S00] [Informix][Informix ODBC Driver]Invalid connection string attribute.
   at System.Data.Odbc.OdbcConnection.HandleError(OdbcHandle hrHandle, RetCode retcode)
   at System.Data.Odbc.OdbcConnectionHandle..ctor(OdbcConnection connection, OdbcConnectionString constr, OdbcEnvironmentHandle environmentHandle)
   at System.Data.Odbc.OdbcConnectionOpen..ctor(OdbcConnection outerConnection, OdbcConnectionString connectionOptions)
   at System.Data.Odbc.OdbcConnectionFactory.CreateConnection(DbConnectionOptions options, DbConnectionPoolKey poolKey, Object poolGroupProviderInfo, DbConnectionPool pool, DbConnection owningObject)
   at System.Data.ProviderBase.DbConnectionFactory.CreateConnection(DbConnectionOptions options, DbConnectionPoolKey poolKey, Object poolGroupProviderInfo, DbConnectionPool pool, DbConnection owningConnection, DbConnectionOptions userOptions)
   at System.Data.ProviderBase.DbConnectionFactory.CreateNonPooledConnection(DbConnection owningConnection, DbConnectionPoolGroup poolGroup, DbConnectionOptions userOptions)
   at System.Data.ProviderBase.DbConnectionFactory.TryGetConnection(DbConnection owningConnection, TaskCompletionSource`1 retry, DbConnectionOptions userOptions, DbConnectionInternal oldConnection, DbConnectionInternal& connection)
   at System.Data.ProviderBase.DbConnectionInternal.TryOpenConnectionInternal(DbConnection outerConnection, DbConnectionFactory connectionFactory, TaskCompletionSource`1 retry, DbConnectionOptions userOptions)
   at System.Data.ProviderBase.DbConnectionClosed.TryOpenConnection(DbConnection outerConnection, DbConnectionFactory connectionFactory, TaskCompletionSource`1 retry, DbConnectionOptions userOptions)
   at System.Data.ProviderBase.DbConnectionInternal.OpenConnection(DbConnection outerConnection, DbConnectionFactory connectionFactory)
   at System.Data.Odbc.OdbcConnection.Open()
   at System.Data.Common.DbDataAdapter.FillInternal(DataSet dataset, DataTable[] datatables, Int32 startRecord, Int32 maxRecords, String srcTable, IDbCommand command, CommandBehavior behavior)
   at System.Data.Common.DbDataAdapter.Fill(DataSet dataSet, Int32 startRecord, Int32 maxRecords, String srcTable, IDbCommand command, CommandBehavior behavior)
   at System.Data.Common.DbDataAdapter.Fill(DataSet dataSet)
   at iTECH.Library.DataAccess.ODBC.ODBCHelper.ExecuteDataset(OdbcConnection con, String commandText, CommandType cmdType, OdbcParameter[] parameters)
   at iTECH.Library.DataAccess.ODBC.DbHelper.GetDataSet(String strSql, CommandType cmdType, OdbcParameter[] parameters)
   at iTECH.Library.DataAccess.ODBC.DbHelper.GetDataTable(String strSql, CommandType cmdType, OdbcParameter[] parameters)
   at SecureFTP.tctipd.GetPoDetails(Int32 iPoNumber, Int32 iItem) in E:\Sumit iTech\Project Code\SkyLineEDI\Code\SkylineEdiVer2\SecureFTP\Utility\tctipd.cs:line 174
------------------------
-------- 26-02-2020 19:26:39 --------
iTECH InBiz EDI application is unable to read the incoming EDI file. Please contact iTECH support for more details.
Detail error message..

System Name :MRINAL
File ID :43

Stack Trace :
   at System.Data.Odbc.OdbcConnection.HandleError(OdbcHandle hrHandle, RetCode retcode)
   at System.Data.Odbc.OdbcConnectionHandle..ctor(OdbcConnection connection, OdbcConnectionString constr, OdbcEnvironmentHandle environmentHandle)
   at System.Data.Odbc.OdbcConnectionOpen..ctor(OdbcConnection outerConnection, OdbcConnectionString connectionOptions)
   at System.Data.Odbc.OdbcConnectionFactory.CreateConnection(DbConnectionOptions options, DbConnectionPoolKey poolKey, Object poolGroupProviderInfo, DbConnectionPool pool, DbConnection owningObject)
   at System.Data.ProviderBase.DbConnectionFactory.CreateConnection(DbConnectionOptions options, DbConnectionPoolKey poolKey, Object poolGroupProviderInfo, DbConnectionPool pool, DbConnection owningConnection, DbConnectionOptions userOptions)
   at System.Data.ProviderBase.DbConnectionFactory.CreateNonPooledConnection(DbConnection owningConnection, DbConnectionPoolGroup poolGroup, DbConnectionOptions userOptions)
   at System.Data.ProviderBase.DbConnectionFactory.TryGetConnection(DbConnection owningConnection, TaskCompletionSource`1 retry, DbConnectionOptions userOptions, DbConnectionInternal oldConnection, DbConnectionInternal& connection)
   at System.Data.ProviderBase.DbConnectionInternal.TryOpenConnectionInternal(DbConnection outerConnection, DbConnectionFactory connectionFactory, TaskCompletionSource`1 retry, DbConnectionOptions userOptions)
   at System.Data.ProviderBase.DbConnectionClosed.TryOpenConnection(DbConnection outerConnection, DbConnectionFactory connectionFactory, TaskCompletionSource`1 retry, DbConnectionOptions userOptions)
   at System.Data.ProviderBase.DbConnectionInternal.OpenConnection(DbConnection outerConnection, DbConnectionFactory connectionFactory)
   at System.Data.Odbc.OdbcConnection.Open()
   at System.Data.Common.DbDataAdapter.FillInternal(DataSet dataset, DataTable[] datatables, Int32 startRecord, Int32 maxRecords, String srcTable, IDbCommand command, CommandBehavior behavior)
   at System.Data.Common.DbDataAdapter.Fill(DataSet dataSet, Int32 startRecord, Int32 maxRecords, String srcTable, IDbCommand command, CommandBehavior behavior)
   at System.Data.Common.DbDataAdapter.Fill(DataSet dataSet)
   at iTECH.Library.DataAccess.ODBC.ODBCHelper.ExecuteDataset(OdbcConnection con, String commandText, CommandType cmdType, OdbcParameter[] parameters)
   at iTECH.Library.DataAccess.ODBC.DbHelper.GetDataSet(String strSql, CommandType cmdType, OdbcParameter[] parameters)
   at iTECH.Library.DataAccess.ODBC.DbHelper.GetDataTable(String strSql, CommandType cmdType, OdbcParameter[] parameters)
   at SecureFTP.tctipd.GetPoDetails(Int32 iPoNumber, Int32 iItem) in E:\Sumit iTech\Project Code\SkyLineEDI\Code\SkylineEdiVer2\SecureFTP\Utility\tctipd.cs:line 174
System.Data.Odbc.OdbcException (0x80131937): ERROR [08004] [Informix][Informix ODBC Driver][Informix]Attempt to connect to database server (skydvlptrnsky) failed.
ERROR [01S00] [Informix][Informix ODBC Driver]Invalid connection string attribute.
ERROR [01S00] [Informix][Informix ODBC Driver]Invalid connection string attribute.
   at System.Data.Odbc.OdbcConnection.HandleError(OdbcHandle hrHandle, RetCode retcode)
   at System.Data.Odbc.OdbcConnectionHandle..ctor(OdbcConnection connection, OdbcConnectionString constr, OdbcEnvironmentHandle environmentHandle)
   at System.Data.Odbc.OdbcConnectionOpen..ctor(OdbcConnection outerConnection, OdbcConnectionString connectionOptions)
   at System.Data.Odbc.OdbcConnectionFactory.CreateConnection(DbConnectionOptions options, DbConnectionPoolKey poolKey, Object poolGroupProviderInfo, DbConnectionPool pool, DbConnection owningObject)
   at System.Data.ProviderBase.DbConnectionFactory.CreateConnection(DbConnectionOptions options, DbConnectionPoolKey poolKey, Object poolGroupProviderInfo, DbConnectionPool pool, DbConnection owningConnection, DbConnectionOptions userOptions)
   at System.Data.ProviderBase.DbConnectionFactory.CreateNonPooledConnection(DbConnection owningConnection, DbConnectionPoolGroup poolGroup, DbConnectionOptions userOptions)
   at System.Data.ProviderBase.DbConnectionFactory.TryGetConnection(DbConnection owningConnection, TaskCompletionSource`1 retry, DbConnectionOptions userOptions, DbConnectionInternal oldConnection, DbConnectionInternal& connection)
   at System.Data.ProviderBase.DbConnectionInternal.TryOpenConnectionInternal(DbConnection outerConnection, DbConnectionFactory connectionFactory, TaskCompletionSource`1 retry, DbConnectionOptions userOptions)
   at System.Data.ProviderBase.DbConnectionClosed.TryOpenConnection(DbConnection outerConnection, DbConnectionFactory connectionFactory, TaskCompletionSource`1 retry, DbConnectionOptions userOptions)
   at System.Data.ProviderBase.DbConnectionInternal.OpenConnection(DbConnection outerConnection, DbConnectionFactory connectionFactory)
   at System.Data.Odbc.OdbcConnection.Open()
   at System.Data.Common.DbDataAdapter.FillInternal(DataSet dataset, DataTable[] datatables, Int32 startRecord, Int32 maxRecords, String srcTable, IDbCommand command, CommandBehavior behavior)
   at System.Data.Common.DbDataAdapter.Fill(DataSet dataSet, Int32 startRecord, Int32 maxRecords, String srcTable, IDbCommand command, CommandBehavior behavior)
   at System.Data.Common.DbDataAdapter.Fill(DataSet dataSet)
   at iTECH.Library.DataAccess.ODBC.ODBCHelper.ExecuteDataset(OdbcConnection con, String commandText, CommandType cmdType, OdbcParameter[] parameters)
   at iTECH.Library.DataAccess.ODBC.DbHelper.GetDataSet(String strSql, CommandType cmdType, OdbcParameter[] parameters)
   at iTECH.Library.DataAccess.ODBC.DbHelper.GetDataTable(String strSql, CommandType cmdType, OdbcParameter[] parameters)
   at SecureFTP.tctipd.GetPoDetails(Int32 iPoNumber, Int32 iItem) in E:\Sumit iTech\Project Code\SkyLineEDI\Code\SkylineEdiVer2\SecureFTP\Utility\tctipd.cs:line 174Source of Error :

------------------------
-------- 26-02-2020 19:26:56 --------
m_iWarehouse = 0&& sStratixTagid = 0A3543
------------------------
-------- 26-02-2020 19:28:24 --------
 INSERT INTO detailitem  (DetailId,HeaderId,CmpyId,IntchgPfx,IntchgNo,IntchgItm,IntchgSitm,Form,Grid,Size,Finish,EfEver,  Length,DimDsgn,Idia,GaSize,GaType,RdmDim1,RdmDim2,RdmDim3,RdmDim4,RdmDim5,RdmDim6,RdmDim7,RdmDim8,ImgDocFmt,  UsbWdth1,UsbLength1,UsbArea1,UsbWdth2,UsbLength2,UsbArea2,UsbWdth3,UsbLength3,UsbArea3,UsbWdth4,  UsbArea4,UsbWdth5,UsbLength5,UsbArea5,UsbWdth6,UsbLength6,UsbArea6,UsbWdth7,UsbLength7,UsbArea7,UsbWdth8,  UsbLength8,UsbArea8,UsbWdth9,UsbLength9,UsbArea9,UsbWdth10,UsbLength10,UsbArea10,TagNo,Mill,Heat,MillId,InvtType,  RjctRsn,RjctLgnId,RjctRmk,InvtQlty,Loc,InvtPcs,InvtMsr,InvtWgt,InvtPcsTyp,InvtMsrTyp,InvtWgtTyp,ShpntPcs,  ShpntMsr,ShpntWgt,ShpntPcsTyp,ShpntMsrTyp,ShpntWgtTyp,Pkg,RcvdTrWgt,BlgWdth,ActWdth1,ActWdth2,ActLgth1,ActLgth2,  ActIdia1,ActIdia2,ActOdia1,ActOdia2,ActGa1,ActGa2,ActDiag1,ActDiag2,ActSq,ActFltns1,ActFltns2,CutNo,I55Id,I55Od,  CoilLength,CoilLengthTyp,PartCoilIndc,ProdFor,PartCusId,Part,PartRevNo,PartAcs,CertRcvd,CusTagNo,PrdCst,ClaimNo,  NcrPfx,NcrNo,NcrItm,NcrSbItm,NcrLnNo,ShpTagNo,NewRcptPfx,NewRcptNo,NewRcptItm,NewItmCtlNo)  VALUES  ( '22','21', 'STX', 'XI','','1','1', '', '', '','','','0', '', '0', '0','0','0','0', '0', '0', '0','0','0','0', '', '0', '0','0','0','0', '0', '0', '0','0','0','0', '0', '0', '0','0','0','0', '0', '0', '0','0','0','0', '0', '0', '0','0','0','0', '', 'NST', '20A0447','0A3543','0','',  '0', '','','PARKER TOWING COMPANY','1', '0.0', '63520.00', 'A','A','A','1', '0.0', '63520.00', 'A','A','A','PST', '0', '0', '0','0','0','0', '0', '0', '0','0','0','0', '0', '0', '0','0','0','', '0', '0', '0','A','0','0', '0', '0', '0','0','0','', '0', '0','','0','0', '0', '0','','','0', '0', '0' ) 
------------------------
-------- 26-02-2020 19:29:19 --------
863 is disabled
------------------------
-------- 26-02-2020 19:30:47 --------
Detail  count : 1
------------------------
-------- 26-02-2020 19:30:48 --------
Detail Item count : 1
------------------------
-------- 26-02-2020 20:56:27 --------
m_sFileType = 856863
------------------------
-------- 26-02-2020 20:56:38 --------
select i53_new_rcpt_no from XCTI53_rec where i53_intchg_no =0
------------------------
-------- 26-02-2020 20:57:16 --------
XML PROCESSING START FILE ID 0
------------------------
-------- 26-02-2020 21:08:35 --------
Select first 1 pod_shp_to_whs,pod_frt_ven_id from potpod_rec where pod_cmpy_id =  'STX' and pod_po_pfx= 'PO' and pod_po_no = '512373'
------------------------
-------- 26-02-2020 21:10:51 --------
 UPDATE header set RcvWhs = '', VenShpRef = 'AB09065A', CarrierName = 'PARKER TOWING COMPANY', CarrierVehicleDesc = 'PARKER TOWING COMPANY'  WHERE  HeaderId = 22
------------------------
-------- 26-02-2020 21:13:17 --------
GetPoDetails error occured
------------------------
-------- 26-02-2020 21:13:17 --------
System.Data.Odbc.OdbcException (0x80131937): ERROR [08004] [Informix][Informix ODBC Driver][Informix]Attempt to connect to database server (skydvlptrnsky) failed.
ERROR [01S00] [Informix][Informix ODBC Driver]Invalid connection string attribute.
ERROR [01S00] [Informix][Informix ODBC Driver]Invalid connection string attribute.
   at System.Data.Odbc.OdbcConnection.HandleError(OdbcHandle hrHandle, RetCode retcode)
   at System.Data.Odbc.OdbcConnectionHandle..ctor(OdbcConnection connection, OdbcConnectionString constr, OdbcEnvironmentHandle environmentHandle)
   at System.Data.Odbc.OdbcConnectionOpen..ctor(OdbcConnection outerConnection, OdbcConnectionString connectionOptions)
   at System.Data.Odbc.OdbcConnectionFactory.CreateConnection(DbConnectionOptions options, DbConnectionPoolKey poolKey, Object poolGroupProviderInfo, DbConnectionPool pool, DbConnection owningObject)
   at System.Data.ProviderBase.DbConnectionFactory.CreateConnection(DbConnectionOptions options, DbConnectionPoolKey poolKey, Object poolGroupProviderInfo, DbConnectionPool pool, DbConnection owningConnection, DbConnectionOptions userOptions)
   at System.Data.ProviderBase.DbConnectionFactory.CreateNonPooledConnection(DbConnection owningConnection, DbConnectionPoolGroup poolGroup, DbConnectionOptions userOptions)
   at System.Data.ProviderBase.DbConnectionFactory.TryGetConnection(DbConnection owningConnection, TaskCompletionSource`1 retry, DbConnectionOptions userOptions, DbConnectionInternal oldConnection, DbConnectionInternal& connection)
   at System.Data.ProviderBase.DbConnectionInternal.TryOpenConnectionInternal(DbConnection outerConnection, DbConnectionFactory connectionFactory, TaskCompletionSource`1 retry, DbConnectionOptions userOptions)
   at System.Data.ProviderBase.DbConnectionClosed.TryOpenConnection(DbConnection outerConnection, DbConnectionFactory connectionFactory, TaskCompletionSource`1 retry, DbConnectionOptions userOptions)
   at System.Data.ProviderBase.DbConnectionInternal.OpenConnection(DbConnection outerConnection, DbConnectionFactory connectionFactory)
   at System.Data.Odbc.OdbcConnection.Open()
   at System.Data.Common.DbDataAdapter.FillInternal(DataSet dataset, DataTable[] datatables, Int32 startRecord, Int32 maxRecords, String srcTable, IDbCommand command, CommandBehavior behavior)
   at System.Data.Common.DbDataAdapter.Fill(DataSet dataSet, Int32 startRecord, Int32 maxRecords, String srcTable, IDbCommand command, CommandBehavior behavior)
   at System.Data.Common.DbDataAdapter.Fill(DataSet dataSet)
   at iTECH.Library.DataAccess.ODBC.ODBCHelper.ExecuteDataset(OdbcConnection con, String commandText, CommandType cmdType, OdbcParameter[] parameters)
   at iTECH.Library.DataAccess.ODBC.DbHelper.GetDataSet(String strSql, CommandType cmdType, OdbcParameter[] parameters)
   at iTECH.Library.DataAccess.ODBC.DbHelper.GetDataTable(String strSql, CommandType cmdType, OdbcParameter[] parameters)
   at SecureFTP.tctipd.GetPoDetails(Int32 iPoNumber, Int32 iItem) in E:\Sumit iTech\Project Code\SkyLineEDI\Code\SkylineEdiVer2\SecureFTP\Utility\tctipd.cs:line 174
------------------------
-------- 26-02-2020 21:13:21 --------
iTECH InBiz EDI application is unable to read the incoming EDI file. Please contact iTECH support for more details.
Detail error message..

System Name :MRINAL
File ID :1
File Name :
newXml856.xml
Stack Trace :
   at System.Data.Odbc.OdbcConnection.HandleError(OdbcHandle hrHandle, RetCode retcode)
   at System.Data.Odbc.OdbcConnectionHandle..ctor(OdbcConnection connection, OdbcConnectionString constr, OdbcEnvironmentHandle environmentHandle)
   at System.Data.Odbc.OdbcConnectionOpen..ctor(OdbcConnection outerConnection, OdbcConnectionString connectionOptions)
   at System.Data.Odbc.OdbcConnectionFactory.CreateConnection(DbConnectionOptions options, DbConnectionPoolKey poolKey, Object poolGroupProviderInfo, DbConnectionPool pool, DbConnection owningObject)
   at System.Data.ProviderBase.DbConnectionFactory.CreateConnection(DbConnectionOptions options, DbConnectionPoolKey poolKey, Object poolGroupProviderInfo, DbConnectionPool pool, DbConnection owningConnection, DbConnectionOptions userOptions)
   at System.Data.ProviderBase.DbConnectionFactory.CreateNonPooledConnection(DbConnection owningConnection, DbConnectionPoolGroup poolGroup, DbConnectionOptions userOptions)
   at System.Data.ProviderBase.DbConnectionFactory.TryGetConnection(DbConnection owningConnection, TaskCompletionSource`1 retry, DbConnectionOptions userOptions, DbConnectionInternal oldConnection, DbConnectionInternal& connection)
   at System.Data.ProviderBase.DbConnectionInternal.TryOpenConnectionInternal(DbConnection outerConnection, DbConnectionFactory connectionFactory, TaskCompletionSource`1 retry, DbConnectionOptions userOptions)
   at System.Data.ProviderBase.DbConnectionClosed.TryOpenConnection(DbConnection outerConnection, DbConnectionFactory connectionFactory, TaskCompletionSource`1 retry, DbConnectionOptions userOptions)
   at System.Data.ProviderBase.DbConnectionInternal.OpenConnection(DbConnection outerConnection, DbConnectionFactory connectionFactory)
   at System.Data.Odbc.OdbcConnection.Open()
   at System.Data.Common.DbDataAdapter.FillInternal(DataSet dataset, DataTable[] datatables, Int32 startRecord, Int32 maxRecords, String srcTable, IDbCommand command, CommandBehavior behavior)
   at System.Data.Common.DbDataAdapter.Fill(DataSet dataSet, Int32 startRecord, Int32 maxRecords, String srcTable, IDbCommand command, CommandBehavior behavior)
   at System.Data.Common.DbDataAdapter.Fill(DataSet dataSet)
   at iTECH.Library.DataAccess.ODBC.ODBCHelper.ExecuteDataset(OdbcConnection con, String commandText, CommandType cmdType, OdbcParameter[] parameters)
   at iTECH.Library.DataAccess.ODBC.DbHelper.GetDataSet(String strSql, CommandType cmdType, OdbcParameter[] parameters)
   at iTECH.Library.DataAccess.ODBC.DbHelper.GetDataTable(String strSql, CommandType cmdType, OdbcParameter[] parameters)
   at SecureFTP.tctipd.GetPoDetails(Int32 iPoNumber, Int32 iItem) in E:\Sumit iTech\Project Code\SkyLineEDI\Code\SkylineEdiVer2\SecureFTP\Utility\tctipd.cs:line 174
System.Data.Odbc.OdbcException (0x80131937): ERROR [08004] [Informix][Informix ODBC Driver][Informix]Attempt to connect to database server (skydvlptrnsky) failed.
ERROR [01S00] [Informix][Informix ODBC Driver]Invalid connection string attribute.
ERROR [01S00] [Informix][Informix ODBC Driver]Invalid connection string attribute.
   at System.Data.Odbc.OdbcConnection.HandleError(OdbcHandle hrHandle, RetCode retcode)
   at System.Data.Odbc.OdbcConnectionHandle..ctor(OdbcConnection connection, OdbcConnectionString constr, OdbcEnvironmentHandle environmentHandle)
   at System.Data.Odbc.OdbcConnectionOpen..ctor(OdbcConnection outerConnection, OdbcConnectionString connectionOptions)
   at System.Data.Odbc.OdbcConnectionFactory.CreateConnection(DbConnectionOptions options, DbConnectionPoolKey poolKey, Object poolGroupProviderInfo, DbConnectionPool pool, DbConnection owningObject)
   at System.Data.ProviderBase.DbConnectionFactory.CreateConnection(DbConnectionOptions options, DbConnectionPoolKey poolKey, Object poolGroupProviderInfo, DbConnectionPool pool, DbConnection owningConnection, DbConnectionOptions userOptions)
   at System.Data.ProviderBase.DbConnectionFactory.CreateNonPooledConnection(DbConnection owningConnection, DbConnectionPoolGroup poolGroup, DbConnectionOptions userOptions)
   at System.Data.ProviderBase.DbConnectionFactory.TryGetConnection(DbConnection owningConnection, TaskCompletionSource`1 retry, DbConnectionOptions userOptions, DbConnectionInternal oldConnection, DbConnectionInternal& connection)
   at System.Data.ProviderBase.DbConnectionInternal.TryOpenConnectionInternal(DbConnection outerConnection, DbConnectionFactory connectionFactory, TaskCompletionSource`1 retry, DbConnectionOptions userOptions)
   at System.Data.ProviderBase.DbConnectionClosed.TryOpenConnection(DbConnection outerConnection, DbConnectionFactory connectionFactory, TaskCompletionSource`1 retry, DbConnectionOptions userOptions)
   at System.Data.ProviderBase.DbConnectionInternal.OpenConnection(DbConnection outerConnection, DbConnectionFactory connectionFactory)
   at System.Data.Odbc.OdbcConnection.Open()
   at System.Data.Common.DbDataAdapter.FillInternal(DataSet dataset, DataTable[] datatables, Int32 startRecord, Int32 maxRecords, String srcTable, IDbCommand command, CommandBehavior behavior)
   at System.Data.Common.DbDataAdapter.Fill(DataSet dataSet, Int32 startRecord, Int32 maxRecords, String srcTable, IDbCommand command, CommandBehavior behavior)
   at System.Data.Common.DbDataAdapter.Fill(DataSet dataSet)
   at iTECH.Library.DataAccess.ODBC.ODBCHelper.ExecuteDataset(OdbcConnection con, String commandText, CommandType cmdType, OdbcParameter[] parameters)
   at iTECH.Library.DataAccess.ODBC.DbHelper.GetDataSet(String strSql, CommandType cmdType, OdbcParameter[] parameters)
   at iTECH.Library.DataAccess.ODBC.DbHelper.GetDataTable(String strSql, CommandType cmdType, OdbcParameter[] parameters)
   at SecureFTP.tctipd.GetPoDetails(Int32 iPoNumber, Int32 iItem) in E:\Sumit iTech\Project Code\SkyLineEDI\Code\SkylineEdiVer2\SecureFTP\Utility\tctipd.cs:line 174Source of Error :

------------------------
