-------- 24-02-2020 16:48:35 --------
m_sFileType = 856863
------------------------
-------- 24-02-2020 16:49:16 --------
XML PROCESSING START FILE ID 0
------------------------
-------- 24-02-2020 17:04:51 --------
System.Data.Odbc.OdbcException (0x80131937): ERROR [08004] [Informix][Informix ODBC Driver][Informix]Attempt to connect to database server (skydvlptrnsky) failed.
ERROR [01S00] [Informix][Informix ODBC Driver]Invalid connection string attribute.
ERROR [01S00] [Informix][Informix ODBC Driver]Invalid connection string attribute.
   at System.Data.Odbc.OdbcConnection.HandleError(OdbcHandle hrHandle, RetCode retcode)
   at System.Data.Odbc.OdbcConnectionHandle..ctor(OdbcConnection connection, OdbcConnectionString constr, OdbcEnvironmentHandle environmentHandle)
   at System.Data.Odbc.OdbcConnectionOpen..ctor(OdbcConnection outerConnection, OdbcConnectionString connectionOptions)
   at System.Data.Odbc.OdbcConnectionFactory.CreateConnection(DbConnectionOptions options, DbConnectionPoolKey poolKey, Object poolGroupProviderInfo, DbConnectionPool pool, DbConnection owningObject)
   at System.Data.ProviderBase.DbConnectionFactory.CreateConnection(DbConnectionOptions options, DbConnectionPoolKey poolKey, Object poolGroupProviderInfo, DbConnectionPool pool, DbConnection owningConnection, DbConnectionOptions userOptions)
   at System.Data.ProviderBase.DbConnectionFactory.CreateNonPooledConnection(DbConnection owningConnection, DbConnectionPoolGroup poolGroup, DbConnectionOptions userOptions)
   at System.Data.ProviderBase.DbConnectionFactory.TryGetConnection(DbConnection owningConnection, TaskCompletionSource`1 retry, DbConnectionOptions userOptions, DbConnectionInternal oldConnection, DbConnectionInternal& connection)
   at System.Data.ProviderBase.DbConnectionInternal.TryOpenConnectionInternal(DbConnection outerConnection, DbConnectionFactory connectionFactory, TaskCompletionSource`1 retry, DbConnectionOptions userOptions)
   at System.Data.ProviderBase.DbConnectionClosed.TryOpenConnection(DbConnection outerConnection, DbConnectionFactory connectionFactory, TaskCompletionSource`1 retry, DbConnectionOptions userOptions)
   at System.Data.ProviderBase.DbConnectionInternal.OpenConnection(DbConnection outerConnection, DbConnectionFactory connectionFactory)
   at System.Data.Odbc.OdbcConnection.Open()
   at System.Data.Common.DbDataAdapter.FillInternal(DataSet dataset, DataTable[] datatables, Int32 startRecord, Int32 maxRecords, String srcTable, IDbCommand command, CommandBehavior behavior)
   at System.Data.Common.DbDataAdapter.Fill(DataSet dataSet, Int32 startRecord, Int32 maxRecords, String srcTable, IDbCommand command, CommandBehavior behavior)
   at System.Data.Common.DbDataAdapter.Fill(DataSet dataSet)
   at iTECH.Library.DataAccess.ODBC.ODBCHelper.ExecuteDataset(OdbcConnection con, String commandText, CommandType cmdType, OdbcParameter[] parameters)
   at iTECH.Library.DataAccess.ODBC.DbHelper.GetDataSet(String strSql, CommandType cmdType, OdbcParameter[] parameters)
   at iTECH.Library.DataAccess.ODBC.DbHelper.GetDataTable(String strSql, CommandType cmdType, OdbcParameter[] parameters)
   at SecureFTP.tctipd.GetPoDetails(Int32 iPoNumber, header863& oheader863) in E:\Sumit iTech\Project Code\SkyLineEDI\Code\SkylineEdiVer2\SecureFTP\Utility\tctipd.cs:line 455
------------------------
-------- 24-02-2020 17:16:56 --------
select * from measurment where VendorId = 'NTU01' and uom = 'KSI'
------------------------
-------- 24-02-2020 17:17:05 --------
sUOMCodeinEdiFile = KSI
------------------------
-------- 24-02-2020 17:17:35 --------
select * from measurment where VendorId = 'NTU01' and uom = 'KSI'
------------------------
