-------- 25-02-2020 13:46:49 --------
m_sFileType = 856863
------------------------
-------- 25-02-2020 13:47:00 --------
XML PROCESSING START FILE ID 0
------------------------
-------- 25-02-2020 14:06:18 --------
System.Data.Odbc.OdbcException (0x80131937): ERROR [08004] [Informix][Informix ODBC Driver][Informix]Attempt to connect to database server (skydvlptrnsky) failed.
ERROR [01S00] [Informix][Informix ODBC Driver]Invalid connection string attribute.
ERROR [01S00] [Informix][Informix ODBC Driver]Invalid connection string attribute.
   at System.Data.Odbc.OdbcConnection.HandleError(OdbcHandle hrHandle, RetCode retcode)
   at System.Data.Odbc.OdbcConnectionHandle..ctor(OdbcConnection connection, OdbcConnectionString constr, OdbcEnvironmentHandle environmentHandle)
   at System.Data.Odbc.OdbcConnectionOpen..ctor(OdbcConnection outerConnection, OdbcConnectionString connectionOptions)
   at System.Data.Odbc.OdbcConnectionFactory.CreateConnection(DbConnectionOptions options, DbConnectionPoolKey poolKey, Object poolGroupProviderInfo, DbConnectionPool pool, DbConnection owningObject)
   at System.Data.ProviderBase.DbConnectionFactory.CreateConnection(DbConnectionOptions options, DbConnectionPoolKey poolKey, Object poolGroupProviderInfo, DbConnectionPool pool, DbConnection owningConnection, DbConnectionOptions userOptions)
   at System.Data.ProviderBase.DbConnectionFactory.CreateNonPooledConnection(DbConnection owningConnection, DbConnectionPoolGroup poolGroup, DbConnectionOptions userOptions)
   at System.Data.ProviderBase.DbConnectionFactory.TryGetConnection(DbConnection owningConnection, TaskCompletionSource`1 retry, DbConnectionOptions userOptions, DbConnectionInternal oldConnection, DbConnectionInternal& connection)
   at System.Data.ProviderBase.DbConnectionInternal.TryOpenConnectionInternal(DbConnection outerConnection, DbConnectionFactory connectionFactory, TaskCompletionSource`1 retry, DbConnectionOptions userOptions)
   at System.Data.ProviderBase.DbConnectionClosed.TryOpenConnection(DbConnection outerConnection, DbConnectionFactory connectionFactory, TaskCompletionSource`1 retry, DbConnectionOptions userOptions)
   at System.Data.ProviderBase.DbConnectionInternal.OpenConnection(DbConnection outerConnection, DbConnectionFactory connectionFactory)
   at System.Data.Odbc.OdbcConnection.Open()
   at System.Data.Common.DbDataAdapter.FillInternal(DataSet dataset, DataTable[] datatables, Int32 startRecord, Int32 maxRecords, String srcTable, IDbCommand command, CommandBehavior behavior)
   at System.Data.Common.DbDataAdapter.Fill(DataSet dataSet, Int32 startRecord, Int32 maxRecords, String srcTable, IDbCommand command, CommandBehavior behavior)
   at System.Data.Common.DbDataAdapter.Fill(DataSet dataSet)
   at iTECH.Library.DataAccess.ODBC.ODBCHelper.ExecuteDataset(OdbcConnection con, String commandText, CommandType cmdType, OdbcParameter[] parameters)
   at iTECH.Library.DataAccess.ODBC.DbHelper.GetDataSet(String strSql, CommandType cmdType, OdbcParameter[] parameters)
   at iTECH.Library.DataAccess.ODBC.DbHelper.GetDataTable(String strSql, CommandType cmdType, OdbcParameter[] parameters)
   at SecureFTP.tctipd.GetPoDetails(Int32 iPoNumber, header863& oheader863) in E:\Sumit iTech\Project Code\SkyLineEDI\Code\SkylineEdiVer2\SecureFTP\Utility\tctipd.cs:line 455
------------------------
-------- 25-02-2020 14:25:03 --------
sUOMCodeinEdiFile = P1
------------------------
-------- 25-02-2020 14:25:14 --------
select * from measurment where VendorId = 'NTU01' and uom = 'P1'
------------------------
-------- 25-02-2020 14:41:08 --------
No test available in database
------------------------
-------- 25-02-2020 14:42:24 --------
sUOMCodeinEdiFile = KS
------------------------
-------- 25-02-2020 14:42:24 --------
select * from measurment where VendorId = 'NTU01' and uom = 'KS'
------------------------
-------- 25-02-2020 14:43:01 --------
sUOMCodeinEdiFile = KS
------------------------
-------- 25-02-2020 14:43:01 --------
select * from measurment where VendorId = 'NTU01' and uom = 'KS'
------------------------
-------- 25-02-2020 14:43:45 --------
m_iFileId in QdsService = 40
------------------------
-------- 25-02-2020 14:43:45 --------
Creating qds is in progress..
------------------------
-------- 25-02-2020 14:44:04 --------
User authentication error: System.ServiceModel.EndpointNotFoundException: There was no endpoint listening at http://192.168.20.4:60200/webservices/exec/AuthenticationService that could accept the message. This is often caused by an incorrect address or SOAP action. See InnerException, if present, for more details. ---> System.Net.WebException: Unable to connect to the remote server ---> System.Net.Sockets.SocketException: An attempt was made to access a socket in a way forbidden by its access permissions 192.168.20.4:60200
   at System.Net.Sockets.Socket.DoConnect(EndPoint endPointSnapshot, SocketAddress socketAddress)
   at System.Net.ServicePoint.ConnectSocketInternal(Boolean connectFailure, Socket s4, Socket s6, Socket& socket, IPAddress& address, ConnectSocketState state, IAsyncResult asyncResult, Exception& exception)
   --- End of inner exception stack trace ---
   at System.Net.HttpWebRequest.GetRequestStream(TransportContext& context)
   at System.Net.HttpWebRequest.GetRequestStream()
   at System.ServiceModel.Channels.HttpOutput.WebRequestHttpOutput.GetOutputStream()
   --- End of inner exception stack trace ---

Server stack trace: 
   at System.ServiceModel.Channels.HttpOutput.WebRequestHttpOutput.GetOutputStream()
   at System.ServiceModel.Channels.HttpOutput.Send(TimeSpan timeout)
   at System.ServiceModel.Channels.HttpChannelFactory`1.HttpRequestChannel.HttpChannelRequest.SendRequest(Message message, TimeSpan timeout)
   at System.ServiceModel.Channels.RequestChannel.Request(Message message, TimeSpan timeout)
   at System.ServiceModel.Dispatcher.RequestChannelBinder.Request(Message message, TimeSpan timeout)
   at System.ServiceModel.Channels.ServiceChannel.Call(String action, Boolean oneway, ProxyOperationRuntime operation, Object[] ins, Object[] outs, TimeSpan timeout)
   at System.ServiceModel.Channels.ServiceChannelProxy.InvokeService(IMethodCallMessage methodCall, ProxyOperationRuntime operation)
   at System.ServiceModel.Channels.ServiceChannelProxy.Invoke(IMessage message)

Exception rethrown at [0]: 
   at System.Runtime.Remoting.Proxies.RealProxy.HandleReturnMessage(IMessage reqMsg, IMessage retMsg)
   at System.Runtime.Remoting.Proxies.RealProxy.PrivateInvoke(MessageData& msgData, Int32 type)
   at SecureFTP.GatewayAuthService.AuthenticationService.GatewayLogin(GatewayLoginRequest request)
   at SecureFTP.GatewayAuthService.AuthenticationServiceClient.SecureFTP.GatewayAuthService.AuthenticationService.GatewayLogin(GatewayLoginRequest request) in E:\Sumit iTech\Project Code\SkyLineEDI\Code\SkylineEdiVer2\SecureFTP\Service References\GatewayAuthService\Reference.cs:line 1747
   at SecureFTP.QdsService.UserAuthentication() in E:\Sumit iTech\Project Code\SkyLineEDI\Code\SkylineEdiVer2\SecureFTP\863\QdsService.cs:line 1398
------------------------
-------- 25-02-2020 14:44:20 --------
Error in webservice qds creation..
------------------------
-------- 25-02-2020 14:44:22 --------
iTECH InBiz EDI application is unable to process data through STRATIX. Detailed message is attached below. If you required more information, please contact iTECH support.
Detail error message..

System Name :MRINAL
File ID :40

Stack Trace :
   at SecureFTP.QdsService.UserAuthentication() in E:\Sumit iTech\Project Code\SkyLineEDI\Code\SkylineEdiVer2\SecureFTP\863\QdsService.cs:line 1411
   at SecureFTP.QdsService.CreateQDS() in E:\Sumit iTech\Project Code\SkyLineEDI\Code\SkylineEdiVer2\SecureFTP\863\QdsService.cs:line 413
System.NullReferenceException: Object reference not set to an instance of an object.
   at SecureFTP.QdsService.UserAuthentication() in E:\Sumit iTech\Project Code\SkyLineEDI\Code\SkylineEdiVer2\SecureFTP\863\QdsService.cs:line 1411
   at SecureFTP.QdsService.CreateQDS() in E:\Sumit iTech\Project Code\SkyLineEDI\Code\SkylineEdiVer2\SecureFTP\863\QdsService.cs:line 413Source of Error :
SkyLineEdiVer2
------------------------
-------- 25-02-2020 14:44:22 --------
User authentication LogOut error: There was no endpoint listening at http://192.168.20.4:60200/webservices/exec/AuthenticationService that could accept the message. This is often caused by an incorrect address or SOAP action. See InnerException, if present, for more details.
------------------------
-------- 25-02-2020 14:44:37 --------
Error during geting Error data from sctmsg_rec table from database ERROR [08004] [Informix][Informix ODBC Driver][Informix]Attempt to connect to database server (skydvlptrnsky) failed.
ERROR [01S00] [Informix][Informix ODBC Driver]Invalid connection string attribute.
ERROR [01S00] [Informix][Informix ODBC Driver]Invalid connection string attribute.
------------------------
-------- 25-02-2020 14:44:54 --------
Error during geting Error data from sctmsg_rec table from database ERROR [08004] [Informix][Informix ODBC Driver][Informix]Attempt to connect to database server (skydvlptrnsky) failed.
ERROR [01S00] [Informix][Informix ODBC Driver]Invalid connection string attribute.
ERROR [01S00] [Informix][Informix ODBC Driver]Invalid connection string attribute.
------------------------
-------- 25-02-2020 19:40:16 --------
m_sFileType = 856863
------------------------
-------- 25-02-2020 19:40:16 --------
XML PROCESSING START FILE ID 0
------------------------
-------- 25-02-2020 19:43:00 --------
Select first 1 pod_shp_to_whs,pod_frt_ven_id from potpod_rec where pod_cmpy_id =  'STX' and pod_po_pfx= 'PO' and pod_po_no = '512373'
------------------------
-------- 25-02-2020 19:43:30 --------
 UPDATE header set RcvWhs = '', VenShpRef = 'AB09065A', CarrierName = 'PARKER TOWING COMPANY', CarrierVehicleDesc = 'PARKER TOWING COMPANY'  WHERE  HeaderId = 19
------------------------
-------- 25-02-2020 19:43:48 --------
GetPoDetails error occured
------------------------
-------- 25-02-2020 19:43:48 --------
System.Data.Odbc.OdbcException (0x80131937): ERROR [08004] [Informix][Informix ODBC Driver][Informix]Attempt to connect to database server (skydvlptrnsky) failed.
ERROR [01S00] [Informix][Informix ODBC Driver]Invalid connection string attribute.
ERROR [01S00] [Informix][Informix ODBC Driver]Invalid connection string attribute.
   at System.Data.Odbc.OdbcConnection.HandleError(OdbcHandle hrHandle, RetCode retcode)
   at System.Data.Odbc.OdbcConnectionHandle..ctor(OdbcConnection connection, OdbcConnectionString constr, OdbcEnvironmentHandle environmentHandle)
   at System.Data.Odbc.OdbcConnectionOpen..ctor(OdbcConnection outerConnection, OdbcConnectionString connectionOptions)
   at System.Data.Odbc.OdbcConnectionFactory.CreateConnection(DbConnectionOptions options, DbConnectionPoolKey poolKey, Object poolGroupProviderInfo, DbConnectionPool pool, DbConnection owningObject)
   at System.Data.ProviderBase.DbConnectionFactory.CreateConnection(DbConnectionOptions options, DbConnectionPoolKey poolKey, Object poolGroupProviderInfo, DbConnectionPool pool, DbConnection owningConnection, DbConnectionOptions userOptions)
   at System.Data.ProviderBase.DbConnectionFactory.CreateNonPooledConnection(DbConnection owningConnection, DbConnectionPoolGroup poolGroup, DbConnectionOptions userOptions)
   at System.Data.ProviderBase.DbConnectionFactory.TryGetConnection(DbConnection owningConnection, TaskCompletionSource`1 retry, DbConnectionOptions userOptions, DbConnectionInternal oldConnection, DbConnectionInternal& connection)
   at System.Data.ProviderBase.DbConnectionInternal.TryOpenConnectionInternal(DbConnection outerConnection, DbConnectionFactory connectionFactory, TaskCompletionSource`1 retry, DbConnectionOptions userOptions)
   at System.Data.ProviderBase.DbConnectionClosed.TryOpenConnection(DbConnection outerConnection, DbConnectionFactory connectionFactory, TaskCompletionSource`1 retry, DbConnectionOptions userOptions)
   at System.Data.ProviderBase.DbConnectionInternal.OpenConnection(DbConnection outerConnection, DbConnectionFactory connectionFactory)
   at System.Data.Odbc.OdbcConnection.Open()
   at System.Data.Common.DbDataAdapter.FillInternal(DataSet dataset, DataTable[] datatables, Int32 startRecord, Int32 maxRecords, String srcTable, IDbCommand command, CommandBehavior behavior)
   at System.Data.Common.DbDataAdapter.Fill(DataSet dataSet, Int32 startRecord, Int32 maxRecords, String srcTable, IDbCommand command, CommandBehavior behavior)
   at System.Data.Common.DbDataAdapter.Fill(DataSet dataSet)
   at iTECH.Library.DataAccess.ODBC.ODBCHelper.ExecuteDataset(OdbcConnection con, String commandText, CommandType cmdType, OdbcParameter[] parameters)
   at iTECH.Library.DataAccess.ODBC.DbHelper.GetDataSet(String strSql, CommandType cmdType, OdbcParameter[] parameters)
   at iTECH.Library.DataAccess.ODBC.DbHelper.GetDataTable(String strSql, CommandType cmdType, OdbcParameter[] parameters)
   at SecureFTP.tctipd.GetPoDetails(Int32 iPoNumber, Int32 iItem) in E:\Sumit iTech\Project Code\SkyLineEDI\Code\SkylineEdiVer2\SecureFTP\Utility\tctipd.cs:line 174
------------------------
-------- 25-02-2020 19:43:48 --------
iTECH InBiz EDI application is unable to read the incoming EDI file. Please contact iTECH support for more details.
Detail error message..

System Name :MRINAL
File ID :1
File Name :
newXml856.xml
Stack Trace :
   at System.Data.Odbc.OdbcConnection.HandleError(OdbcHandle hrHandle, RetCode retcode)
   at System.Data.Odbc.OdbcConnectionHandle..ctor(OdbcConnection connection, OdbcConnectionString constr, OdbcEnvironmentHandle environmentHandle)
   at System.Data.Odbc.OdbcConnectionOpen..ctor(OdbcConnection outerConnection, OdbcConnectionString connectionOptions)
   at System.Data.Odbc.OdbcConnectionFactory.CreateConnection(DbConnectionOptions options, DbConnectionPoolKey poolKey, Object poolGroupProviderInfo, DbConnectionPool pool, DbConnection owningObject)
   at System.Data.ProviderBase.DbConnectionFactory.CreateConnection(DbConnectionOptions options, DbConnectionPoolKey poolKey, Object poolGroupProviderInfo, DbConnectionPool pool, DbConnection owningConnection, DbConnectionOptions userOptions)
   at System.Data.ProviderBase.DbConnectionFactory.CreateNonPooledConnection(DbConnection owningConnection, DbConnectionPoolGroup poolGroup, DbConnectionOptions userOptions)
   at System.Data.ProviderBase.DbConnectionFactory.TryGetConnection(DbConnection owningConnection, TaskCompletionSource`1 retry, DbConnectionOptions userOptions, DbConnectionInternal oldConnection, DbConnectionInternal& connection)
   at System.Data.ProviderBase.DbConnectionInternal.TryOpenConnectionInternal(DbConnection outerConnection, DbConnectionFactory connectionFactory, TaskCompletionSource`1 retry, DbConnectionOptions userOptions)
   at System.Data.ProviderBase.DbConnectionClosed.TryOpenConnection(DbConnection outerConnection, DbConnectionFactory connectionFactory, TaskCompletionSource`1 retry, DbConnectionOptions userOptions)
   at System.Data.ProviderBase.DbConnectionInternal.OpenConnection(DbConnection outerConnection, DbConnectionFactory connectionFactory)
   at System.Data.Odbc.OdbcConnection.Open()
   at System.Data.Common.DbDataAdapter.FillInternal(DataSet dataset, DataTable[] datatables, Int32 startRecord, Int32 maxRecords, String srcTable, IDbCommand command, CommandBehavior behavior)
   at System.Data.Common.DbDataAdapter.Fill(DataSet dataSet, Int32 startRecord, Int32 maxRecords, String srcTable, IDbCommand command, CommandBehavior behavior)
   at System.Data.Common.DbDataAdapter.Fill(DataSet dataSet)
   at iTECH.Library.DataAccess.ODBC.ODBCHelper.ExecuteDataset(OdbcConnection con, String commandText, CommandType cmdType, OdbcParameter[] parameters)
   at iTECH.Library.DataAccess.ODBC.DbHelper.GetDataSet(String strSql, CommandType cmdType, OdbcParameter[] parameters)
   at iTECH.Library.DataAccess.ODBC.DbHelper.GetDataTable(String strSql, CommandType cmdType, OdbcParameter[] parameters)
   at SecureFTP.tctipd.GetPoDetails(Int32 iPoNumber, Int32 iItem) in E:\Sumit iTech\Project Code\SkyLineEDI\Code\SkylineEdiVer2\SecureFTP\Utility\tctipd.cs:line 174
System.Data.Odbc.OdbcException (0x80131937): ERROR [08004] [Informix][Informix ODBC Driver][Informix]Attempt to connect to database server (skydvlptrnsky) failed.
ERROR [01S00] [Informix][Informix ODBC Driver]Invalid connection string attribute.
ERROR [01S00] [Informix][Informix ODBC Driver]Invalid connection string attribute.
   at System.Data.Odbc.OdbcConnection.HandleError(OdbcHandle hrHandle, RetCode retcode)
   at System.Data.Odbc.OdbcConnectionHandle..ctor(OdbcConnection connection, OdbcConnectionString constr, OdbcEnvironmentHandle environmentHandle)
   at System.Data.Odbc.OdbcConnectionOpen..ctor(OdbcConnection outerConnection, OdbcConnectionString connectionOptions)
   at System.Data.Odbc.OdbcConnectionFactory.CreateConnection(DbConnectionOptions options, DbConnectionPoolKey poolKey, Object poolGroupProviderInfo, DbConnectionPool pool, DbConnection owningObject)
   at System.Data.ProviderBase.DbConnectionFactory.CreateConnection(DbConnectionOptions options, DbConnectionPoolKey poolKey, Object poolGroupProviderInfo, DbConnectionPool pool, DbConnection owningConnection, DbConnectionOptions userOptions)
   at System.Data.ProviderBase.DbConnectionFactory.CreateNonPooledConnection(DbConnection owningConnection, DbConnectionPoolGroup poolGroup, DbConnectionOptions userOptions)
   at System.Data.ProviderBase.DbConnectionFactory.TryGetConnection(DbConnection owningConnection, TaskCompletionSource`1 retry, DbConnectionOptions userOptions, DbConnectionInternal oldConnection, DbConnectionInternal& connection)
   at System.Data.ProviderBase.DbConnectionInternal.TryOpenConnectionInternal(DbConnection outerConnection, DbConnectionFactory connectionFactory, TaskCompletionSource`1 retry, DbConnectionOptions userOptions)
   at System.Data.ProviderBase.DbConnectionClosed.TryOpenConnection(DbConnection outerConnection, DbConnectionFactory connectionFactory, TaskCompletionSource`1 retry, DbConnectionOptions userOptions)
   at System.Data.ProviderBase.DbConnectionInternal.OpenConnection(DbConnection outerConnection, DbConnectionFactory connectionFactory)
   at System.Data.Odbc.OdbcConnection.Open()
   at System.Data.Common.DbDataAdapter.FillInternal(DataSet dataset, DataTable[] datatables, Int32 startRecord, Int32 maxRecords, String srcTable, IDbCommand command, CommandBehavior behavior)
   at System.Data.Common.DbDataAdapter.Fill(DataSet dataSet, Int32 startRecord, Int32 maxRecords, String srcTable, IDbCommand command, CommandBehavior behavior)
   at System.Data.Common.DbDataAdapter.Fill(DataSet dataSet)
   at iTECH.Library.DataAccess.ODBC.ODBCHelper.ExecuteDataset(OdbcConnection con, String commandText, CommandType cmdType, OdbcParameter[] parameters)
   at iTECH.Library.DataAccess.ODBC.DbHelper.GetDataSet(String strSql, CommandType cmdType, OdbcParameter[] parameters)
   at iTECH.Library.DataAccess.ODBC.DbHelper.GetDataTable(String strSql, CommandType cmdType, OdbcParameter[] parameters)
   at SecureFTP.tctipd.GetPoDetails(Int32 iPoNumber, Int32 iItem) in E:\Sumit iTech\Project Code\SkyLineEDI\Code\SkylineEdiVer2\SecureFTP\Utility\tctipd.cs:line 174Source of Error :

------------------------
-------- 25-02-2020 19:44:35 --------
Deatil entry m_sbSql  = .. INSERT INTO detail(HeaderId, PrntNo, PrntItm, PrntSubItm, CusRtnMthd, ShptNo, ShptTagNo, VenShptRef, OrigShpntPcs, OrigShpntMsr, OrigShptWgt, ShpGrsPcs, ShpGrsMsr, ShpGrsWgt,  Form, Grade, Size, Finish, ExtendedFinish, Width, Length, DimDsgn, InnerDia, OuterDia, WallThck, GaSize, GaType, RndmDim1, RndmDim2, RndmDim3, RndmDim4, RndmDim5, RndmDim6, RndmDim7, RndmDim8, OfcRvw, SlsCat, IntchgItm, HeatNo, ShipperNo,MultiplePoItemExist) VALUES ('19', '512373', '1', '1', '', '512373'  , '', '', '1', '0.0000', '63520.00'   , '1', '0', '63520.00', '', ''   , '', '', '', '0', '0.0'   , '', '0.0', '0.0', '0.0', '0.0'   , '', '0.0', '0.0', '0.0', '0.0', '0.0'   , '0.0', '0.0', '0.0', '0', '' , '1' , '20A0447', 'AB09065A', '1' )
------------------------
-------- 25-02-2020 19:45:16 --------
sLength = 1
------------------------
-------- 25-02-2020 19:46:06 --------
GetPoDetails error occured
------------------------
-------- 25-02-2020 19:46:06 --------
System.Data.Odbc.OdbcException (0x80131937): ERROR [08004] [Informix][Informix ODBC Driver][Informix]Attempt to connect to database server (skydvlptrnsky) failed.
ERROR [01S00] [Informix][Informix ODBC Driver]Invalid connection string attribute.
ERROR [01S00] [Informix][Informix ODBC Driver]Invalid connection string attribute.
   at System.Data.Odbc.OdbcConnection.HandleError(OdbcHandle hrHandle, RetCode retcode)
   at System.Data.Odbc.OdbcConnectionHandle..ctor(OdbcConnection connection, OdbcConnectionString constr, OdbcEnvironmentHandle environmentHandle)
   at System.Data.Odbc.OdbcConnectionOpen..ctor(OdbcConnection outerConnection, OdbcConnectionString connectionOptions)
   at System.Data.Odbc.OdbcConnectionFactory.CreateConnection(DbConnectionOptions options, DbConnectionPoolKey poolKey, Object poolGroupProviderInfo, DbConnectionPool pool, DbConnection owningObject)
   at System.Data.ProviderBase.DbConnectionFactory.CreateConnection(DbConnectionOptions options, DbConnectionPoolKey poolKey, Object poolGroupProviderInfo, DbConnectionPool pool, DbConnection owningConnection, DbConnectionOptions userOptions)
   at System.Data.ProviderBase.DbConnectionFactory.CreateNonPooledConnection(DbConnection owningConnection, DbConnectionPoolGroup poolGroup, DbConnectionOptions userOptions)
   at System.Data.ProviderBase.DbConnectionFactory.TryGetConnection(DbConnection owningConnection, TaskCompletionSource`1 retry, DbConnectionOptions userOptions, DbConnectionInternal oldConnection, DbConnectionInternal& connection)
   at System.Data.ProviderBase.DbConnectionInternal.TryOpenConnectionInternal(DbConnection outerConnection, DbConnectionFactory connectionFactory, TaskCompletionSource`1 retry, DbConnectionOptions userOptions)
   at System.Data.ProviderBase.DbConnectionClosed.TryOpenConnection(DbConnection outerConnection, DbConnectionFactory connectionFactory, TaskCompletionSource`1 retry, DbConnectionOptions userOptions)
   at System.Data.ProviderBase.DbConnectionInternal.OpenConnection(DbConnection outerConnection, DbConnectionFactory connectionFactory)
   at System.Data.Odbc.OdbcConnection.Open()
   at System.Data.Common.DbDataAdapter.FillInternal(DataSet dataset, DataTable[] datatables, Int32 startRecord, Int32 maxRecords, String srcTable, IDbCommand command, CommandBehavior behavior)
   at System.Data.Common.DbDataAdapter.Fill(DataSet dataSet, Int32 startRecord, Int32 maxRecords, String srcTable, IDbCommand command, CommandBehavior behavior)
   at System.Data.Common.DbDataAdapter.Fill(DataSet dataSet)
   at iTECH.Library.DataAccess.ODBC.ODBCHelper.ExecuteDataset(OdbcConnection con, String commandText, CommandType cmdType, OdbcParameter[] parameters)
   at iTECH.Library.DataAccess.ODBC.DbHelper.GetDataSet(String strSql, CommandType cmdType, OdbcParameter[] parameters)
   at iTECH.Library.DataAccess.ODBC.DbHelper.GetDataTable(String strSql, CommandType cmdType, OdbcParameter[] parameters)
   at SecureFTP.tctipd.GetPoDetails(Int32 iPoNumber, Int32 iItem) in E:\Sumit iTech\Project Code\SkyLineEDI\Code\SkylineEdiVer2\SecureFTP\Utility\tctipd.cs:line 174
------------------------
-------- 25-02-2020 19:46:06 --------
iTECH InBiz EDI application is unable to read the incoming EDI file. Please contact iTECH support for more details.
Detail error message..

System Name :MRINAL
File ID :1
File Name :
newXml856.xml
Stack Trace :
   at System.Data.Odbc.OdbcConnection.HandleError(OdbcHandle hrHandle, RetCode retcode)
   at System.Data.Odbc.OdbcConnectionHandle..ctor(OdbcConnection connection, OdbcConnectionString constr, OdbcEnvironmentHandle environmentHandle)
   at System.Data.Odbc.OdbcConnectionOpen..ctor(OdbcConnection outerConnection, OdbcConnectionString connectionOptions)
   at System.Data.Odbc.OdbcConnectionFactory.CreateConnection(DbConnectionOptions options, DbConnectionPoolKey poolKey, Object poolGroupProviderInfo, DbConnectionPool pool, DbConnection owningObject)
   at System.Data.ProviderBase.DbConnectionFactory.CreateConnection(DbConnectionOptions options, DbConnectionPoolKey poolKey, Object poolGroupProviderInfo, DbConnectionPool pool, DbConnection owningConnection, DbConnectionOptions userOptions)
   at System.Data.ProviderBase.DbConnectionFactory.CreateNonPooledConnection(DbConnection owningConnection, DbConnectionPoolGroup poolGroup, DbConnectionOptions userOptions)
   at System.Data.ProviderBase.DbConnectionFactory.TryGetConnection(DbConnection owningConnection, TaskCompletionSource`1 retry, DbConnectionOptions userOptions, DbConnectionInternal oldConnection, DbConnectionInternal& connection)
   at System.Data.ProviderBase.DbConnectionInternal.TryOpenConnectionInternal(DbConnection outerConnection, DbConnectionFactory connectionFactory, TaskCompletionSource`1 retry, DbConnectionOptions userOptions)
   at System.Data.ProviderBase.DbConnectionClosed.TryOpenConnection(DbConnection outerConnection, DbConnectionFactory connectionFactory, TaskCompletionSource`1 retry, DbConnectionOptions userOptions)
   at System.Data.ProviderBase.DbConnectionInternal.OpenConnection(DbConnection outerConnection, DbConnectionFactory connectionFactory)
   at System.Data.Odbc.OdbcConnection.Open()
   at System.Data.Common.DbDataAdapter.FillInternal(DataSet dataset, DataTable[] datatables, Int32 startRecord, Int32 maxRecords, String srcTable, IDbCommand command, CommandBehavior behavior)
   at System.Data.Common.DbDataAdapter.Fill(DataSet dataSet, Int32 startRecord, Int32 maxRecords, String srcTable, IDbCommand command, CommandBehavior behavior)
   at System.Data.Common.DbDataAdapter.Fill(DataSet dataSet)
   at iTECH.Library.DataAccess.ODBC.ODBCHelper.ExecuteDataset(OdbcConnection con, String commandText, CommandType cmdType, OdbcParameter[] parameters)
   at iTECH.Library.DataAccess.ODBC.DbHelper.GetDataSet(String strSql, CommandType cmdType, OdbcParameter[] parameters)
   at iTECH.Library.DataAccess.ODBC.DbHelper.GetDataTable(String strSql, CommandType cmdType, OdbcParameter[] parameters)
   at SecureFTP.tctipd.GetPoDetails(Int32 iPoNumber, Int32 iItem) in E:\Sumit iTech\Project Code\SkyLineEDI\Code\SkylineEdiVer2\SecureFTP\Utility\tctipd.cs:line 174
System.Data.Odbc.OdbcException (0x80131937): ERROR [08004] [Informix][Informix ODBC Driver][Informix]Attempt to connect to database server (skydvlptrnsky) failed.
ERROR [01S00] [Informix][Informix ODBC Driver]Invalid connection string attribute.
ERROR [01S00] [Informix][Informix ODBC Driver]Invalid connection string attribute.
   at System.Data.Odbc.OdbcConnection.HandleError(OdbcHandle hrHandle, RetCode retcode)
   at System.Data.Odbc.OdbcConnectionHandle..ctor(OdbcConnection connection, OdbcConnectionString constr, OdbcEnvironmentHandle environmentHandle)
   at System.Data.Odbc.OdbcConnectionOpen..ctor(OdbcConnection outerConnection, OdbcConnectionString connectionOptions)
   at System.Data.Odbc.OdbcConnectionFactory.CreateConnection(DbConnectionOptions options, DbConnectionPoolKey poolKey, Object poolGroupProviderInfo, DbConnectionPool pool, DbConnection owningObject)
   at System.Data.ProviderBase.DbConnectionFactory.CreateConnection(DbConnectionOptions options, DbConnectionPoolKey poolKey, Object poolGroupProviderInfo, DbConnectionPool pool, DbConnection owningConnection, DbConnectionOptions userOptions)
   at System.Data.ProviderBase.DbConnectionFactory.CreateNonPooledConnection(DbConnection owningConnection, DbConnectionPoolGroup poolGroup, DbConnectionOptions userOptions)
   at System.Data.ProviderBase.DbConnectionFactory.TryGetConnection(DbConnection owningConnection, TaskCompletionSource`1 retry, DbConnectionOptions userOptions, DbConnectionInternal oldConnection, DbConnectionInternal& connection)
   at System.Data.ProviderBase.DbConnectionInternal.TryOpenConnectionInternal(DbConnection outerConnection, DbConnectionFactory connectionFactory, TaskCompletionSource`1 retry, DbConnectionOptions userOptions)
   at System.Data.ProviderBase.DbConnectionClosed.TryOpenConnection(DbConnection outerConnection, DbConnectionFactory connectionFactory, TaskCompletionSource`1 retry, DbConnectionOptions userOptions)
   at System.Data.ProviderBase.DbConnectionInternal.OpenConnection(DbConnection outerConnection, DbConnectionFactory connectionFactory)
   at System.Data.Odbc.OdbcConnection.Open()
   at System.Data.Common.DbDataAdapter.FillInternal(DataSet dataset, DataTable[] datatables, Int32 startRecord, Int32 maxRecords, String srcTable, IDbCommand command, CommandBehavior behavior)
   at System.Data.Common.DbDataAdapter.Fill(DataSet dataSet, Int32 startRecord, Int32 maxRecords, String srcTable, IDbCommand command, CommandBehavior behavior)
   at System.Data.Common.DbDataAdapter.Fill(DataSet dataSet)
   at iTECH.Library.DataAccess.ODBC.ODBCHelper.ExecuteDataset(OdbcConnection con, String commandText, CommandType cmdType, OdbcParameter[] parameters)
   at iTECH.Library.DataAccess.ODBC.DbHelper.GetDataSet(String strSql, CommandType cmdType, OdbcParameter[] parameters)
   at iTECH.Library.DataAccess.ODBC.DbHelper.GetDataTable(String strSql, CommandType cmdType, OdbcParameter[] parameters)
   at SecureFTP.tctipd.GetPoDetails(Int32 iPoNumber, Int32 iItem) in E:\Sumit iTech\Project Code\SkyLineEDI\Code\SkylineEdiVer2\SecureFTP\Utility\tctipd.cs:line 174Source of Error :

------------------------
-------- 25-02-2020 19:46:58 --------
GetPoDetails error occured
------------------------
-------- 25-02-2020 19:46:58 --------
System.Data.Odbc.OdbcException (0x80131937): ERROR [08004] [Informix][Informix ODBC Driver][Informix]Attempt to connect to database server (skydvlptrnsky) failed.
ERROR [01S00] [Informix][Informix ODBC Driver]Invalid connection string attribute.
ERROR [01S00] [Informix][Informix ODBC Driver]Invalid connection string attribute.
   at System.Data.Odbc.OdbcConnection.HandleError(OdbcHandle hrHandle, RetCode retcode)
   at System.Data.Odbc.OdbcConnectionHandle..ctor(OdbcConnection connection, OdbcConnectionString constr, OdbcEnvironmentHandle environmentHandle)
   at System.Data.Odbc.OdbcConnectionOpen..ctor(OdbcConnection outerConnection, OdbcConnectionString connectionOptions)
   at System.Data.Odbc.OdbcConnectionFactory.CreateConnection(DbConnectionOptions options, DbConnectionPoolKey poolKey, Object poolGroupProviderInfo, DbConnectionPool pool, DbConnection owningObject)
   at System.Data.ProviderBase.DbConnectionFactory.CreateConnection(DbConnectionOptions options, DbConnectionPoolKey poolKey, Object poolGroupProviderInfo, DbConnectionPool pool, DbConnection owningConnection, DbConnectionOptions userOptions)
   at System.Data.ProviderBase.DbConnectionFactory.CreateNonPooledConnection(DbConnection owningConnection, DbConnectionPoolGroup poolGroup, DbConnectionOptions userOptions)
   at System.Data.ProviderBase.DbConnectionFactory.TryGetConnection(DbConnection owningConnection, TaskCompletionSource`1 retry, DbConnectionOptions userOptions, DbConnectionInternal oldConnection, DbConnectionInternal& connection)
   at System.Data.ProviderBase.DbConnectionInternal.TryOpenConnectionInternal(DbConnection outerConnection, DbConnectionFactory connectionFactory, TaskCompletionSource`1 retry, DbConnectionOptions userOptions)
   at System.Data.ProviderBase.DbConnectionClosed.TryOpenConnection(DbConnection outerConnection, DbConnectionFactory connectionFactory, TaskCompletionSource`1 retry, DbConnectionOptions userOptions)
   at System.Data.ProviderBase.DbConnectionInternal.OpenConnection(DbConnection outerConnection, DbConnectionFactory connectionFactory)
   at System.Data.Odbc.OdbcConnection.Open()
   at System.Data.Common.DbDataAdapter.FillInternal(DataSet dataset, DataTable[] datatables, Int32 startRecord, Int32 maxRecords, String srcTable, IDbCommand command, CommandBehavior behavior)
   at System.Data.Common.DbDataAdapter.Fill(DataSet dataSet, Int32 startRecord, Int32 maxRecords, String srcTable, IDbCommand command, CommandBehavior behavior)
   at System.Data.Common.DbDataAdapter.Fill(DataSet dataSet)
   at iTECH.Library.DataAccess.ODBC.ODBCHelper.ExecuteDataset(OdbcConnection con, String commandText, CommandType cmdType, OdbcParameter[] parameters)
   at iTECH.Library.DataAccess.ODBC.DbHelper.GetDataSet(String strSql, CommandType cmdType, OdbcParameter[] parameters)
   at iTECH.Library.DataAccess.ODBC.DbHelper.GetDataTable(String strSql, CommandType cmdType, OdbcParameter[] parameters)
   at SecureFTP.tctipd.GetPoDetails(Int32 iPoNumber, Int32 iItem) in E:\Sumit iTech\Project Code\SkyLineEDI\Code\SkylineEdiVer2\SecureFTP\Utility\tctipd.cs:line 174
------------------------
-------- 25-02-2020 19:46:59 --------
iTECH InBiz EDI application is unable to read the incoming EDI file. Please contact iTECH support for more details.
Detail error message..

System Name :MRINAL
File ID :41

Stack Trace :
   at System.Data.Odbc.OdbcConnection.HandleError(OdbcHandle hrHandle, RetCode retcode)
   at System.Data.Odbc.OdbcConnectionHandle..ctor(OdbcConnection connection, OdbcConnectionString constr, OdbcEnvironmentHandle environmentHandle)
   at System.Data.Odbc.OdbcConnectionOpen..ctor(OdbcConnection outerConnection, OdbcConnectionString connectionOptions)
   at System.Data.Odbc.OdbcConnectionFactory.CreateConnection(DbConnectionOptions options, DbConnectionPoolKey poolKey, Object poolGroupProviderInfo, DbConnectionPool pool, DbConnection owningObject)
   at System.Data.ProviderBase.DbConnectionFactory.CreateConnection(DbConnectionOptions options, DbConnectionPoolKey poolKey, Object poolGroupProviderInfo, DbConnectionPool pool, DbConnection owningConnection, DbConnectionOptions userOptions)
   at System.Data.ProviderBase.DbConnectionFactory.CreateNonPooledConnection(DbConnection owningConnection, DbConnectionPoolGroup poolGroup, DbConnectionOptions userOptions)
   at System.Data.ProviderBase.DbConnectionFactory.TryGetConnection(DbConnection owningConnection, TaskCompletionSource`1 retry, DbConnectionOptions userOptions, DbConnectionInternal oldConnection, DbConnectionInternal& connection)
   at System.Data.ProviderBase.DbConnectionInternal.TryOpenConnectionInternal(DbConnection outerConnection, DbConnectionFactory connectionFactory, TaskCompletionSource`1 retry, DbConnectionOptions userOptions)
   at System.Data.ProviderBase.DbConnectionClosed.TryOpenConnection(DbConnection outerConnection, DbConnectionFactory connectionFactory, TaskCompletionSource`1 retry, DbConnectionOptions userOptions)
   at System.Data.ProviderBase.DbConnectionInternal.OpenConnection(DbConnection outerConnection, DbConnectionFactory connectionFactory)
   at System.Data.Odbc.OdbcConnection.Open()
   at System.Data.Common.DbDataAdapter.FillInternal(DataSet dataset, DataTable[] datatables, Int32 startRecord, Int32 maxRecords, String srcTable, IDbCommand command, CommandBehavior behavior)
   at System.Data.Common.DbDataAdapter.Fill(DataSet dataSet, Int32 startRecord, Int32 maxRecords, String srcTable, IDbCommand command, CommandBehavior behavior)
   at System.Data.Common.DbDataAdapter.Fill(DataSet dataSet)
   at iTECH.Library.DataAccess.ODBC.ODBCHelper.ExecuteDataset(OdbcConnection con, String commandText, CommandType cmdType, OdbcParameter[] parameters)
   at iTECH.Library.DataAccess.ODBC.DbHelper.GetDataSet(String strSql, CommandType cmdType, OdbcParameter[] parameters)
   at iTECH.Library.DataAccess.ODBC.DbHelper.GetDataTable(String strSql, CommandType cmdType, OdbcParameter[] parameters)
   at SecureFTP.tctipd.GetPoDetails(Int32 iPoNumber, Int32 iItem) in E:\Sumit iTech\Project Code\SkyLineEDI\Code\SkylineEdiVer2\SecureFTP\Utility\tctipd.cs:line 174
System.Data.Odbc.OdbcException (0x80131937): ERROR [08004] [Informix][Informix ODBC Driver][Informix]Attempt to connect to database server (skydvlptrnsky) failed.
ERROR [01S00] [Informix][Informix ODBC Driver]Invalid connection string attribute.
ERROR [01S00] [Informix][Informix ODBC Driver]Invalid connection string attribute.
   at System.Data.Odbc.OdbcConnection.HandleError(OdbcHandle hrHandle, RetCode retcode)
   at System.Data.Odbc.OdbcConnectionHandle..ctor(OdbcConnection connection, OdbcConnectionString constr, OdbcEnvironmentHandle environmentHandle)
   at System.Data.Odbc.OdbcConnectionOpen..ctor(OdbcConnection outerConnection, OdbcConnectionString connectionOptions)
   at System.Data.Odbc.OdbcConnectionFactory.CreateConnection(DbConnectionOptions options, DbConnectionPoolKey poolKey, Object poolGroupProviderInfo, DbConnectionPool pool, DbConnection owningObject)
   at System.Data.ProviderBase.DbConnectionFactory.CreateConnection(DbConnectionOptions options, DbConnectionPoolKey poolKey, Object poolGroupProviderInfo, DbConnectionPool pool, DbConnection owningConnection, DbConnectionOptions userOptions)
   at System.Data.ProviderBase.DbConnectionFactory.CreateNonPooledConnection(DbConnection owningConnection, DbConnectionPoolGroup poolGroup, DbConnectionOptions userOptions)
   at System.Data.ProviderBase.DbConnectionFactory.TryGetConnection(DbConnection owningConnection, TaskCompletionSource`1 retry, DbConnectionOptions userOptions, DbConnectionInternal oldConnection, DbConnectionInternal& connection)
   at System.Data.ProviderBase.DbConnectionInternal.TryOpenConnectionInternal(DbConnection outerConnection, DbConnectionFactory connectionFactory, TaskCompletionSource`1 retry, DbConnectionOptions userOptions)
   at System.Data.ProviderBase.DbConnectionClosed.TryOpenConnection(DbConnection outerConnection, DbConnectionFactory connectionFactory, TaskCompletionSource`1 retry, DbConnectionOptions userOptions)
   at System.Data.ProviderBase.DbConnectionInternal.OpenConnection(DbConnection outerConnection, DbConnectionFactory connectionFactory)
   at System.Data.Odbc.OdbcConnection.Open()
   at System.Data.Common.DbDataAdapter.FillInternal(DataSet dataset, DataTable[] datatables, Int32 startRecord, Int32 maxRecords, String srcTable, IDbCommand command, CommandBehavior behavior)
   at System.Data.Common.DbDataAdapter.Fill(DataSet dataSet, Int32 startRecord, Int32 maxRecords, String srcTable, IDbCommand command, CommandBehavior behavior)
   at System.Data.Common.DbDataAdapter.Fill(DataSet dataSet)
   at iTECH.Library.DataAccess.ODBC.ODBCHelper.ExecuteDataset(OdbcConnection con, String commandText, CommandType cmdType, OdbcParameter[] parameters)
   at iTECH.Library.DataAccess.ODBC.DbHelper.GetDataSet(String strSql, CommandType cmdType, OdbcParameter[] parameters)
   at iTECH.Library.DataAccess.ODBC.DbHelper.GetDataTable(String strSql, CommandType cmdType, OdbcParameter[] parameters)
   at SecureFTP.tctipd.GetPoDetails(Int32 iPoNumber, Int32 iItem) in E:\Sumit iTech\Project Code\SkyLineEDI\Code\SkylineEdiVer2\SecureFTP\Utility\tctipd.cs:line 174Source of Error :

------------------------
-------- 25-02-2020 19:47:49 --------
m_iWarehouse = 0&& sStratixTagid = 0A3543
------------------------
