Log starts :28-02-2020 22:08:43

System.NullReferenceException: Object reference not set to an instance of an object.
   at SecureFTP.Edi856XmlParser.ParseDeatilNew()

Log ends :28-02-2020 22:08:43


