FH|19010|201604040849|001
PTH|LBX|121000248|4121238893||U774113
BH|0001|30|0|7748151|7748151|0|0|0
PR|1|236073801|8000029846|C|131000||CHK||032995|2823743||20160310||2016040408495772|||||||ESN-Envelope Sequence Number||001||||||||||0|||
PPR|DERBYSHIRE MACHINE||||||||||||||||||||
PNT|PAYMENT|1|NTE|BTH|0001
RMH|1
REM|1|9|Invoice Information|1128541|131000|0|0|0||||||||||||||0|0|0|0||
RNT|REMITTANCE ADV|1|NTE|ISN|000001
RNT|REMITTANCE ADV|1|NTE|OFN|001
RNT|REMITTANCE ADV|1|NTE|ESN-Envelope Sequence Number|001
PR|2|031202770|8026319198|C|2960||CHK||028991|7567605||20160310||2016040408495772|||||||ESN-Envelope Sequence Number||002||||||||||0|||
PPR|SINECERA INC||||||||||||||||||||
PNT|PAYMENT|1|NTE|BTH|0001
RMH|1
REM|1|0|Invoice Information|1126937|6105|0|0|0||||||||||||||0|0|0|0||
RNT|REMITTANCE ADV|1|NTE|ISN|000002
RNT|REMITTANCE ADV|1|NTE|OFN|001
RNT|REMITTANCE ADV|1|NTE|ESN-Envelope Sequence Number|002
RMH|2
REM|2|9|Invoice Information|1130044|-3145|0|0|0||||||||||||||0|0|0|0||
RNT|REMITTANCE ADV|1|NTE|ISN|000002
RNT|REMITTANCE ADV|1|NTE|OFN|002
RNT|REMITTANCE ADV|1|NTE|ESN-Envelope Sequence Number|002
PR|3|122000247|5081311150|C|378100||CHK||0000003069|7567606||20160310||2016040408495772|||||||ESN-Envelope Sequence Number||003||||||||||0|||
PPR|TRUE STEEL AND CUTTING INC||||||||||||||||||||
PNT|PAYMENT|1|NTE|BTH|0001
RMH|1
REM|1|0|Invoice Information|1127527|52330|0|0|0||||||||||||||0|0|0|0||
RNT|REMITTANCE ADV|1|NTE|ISN|000003
RNT|REMITTANCE ADV|1|NTE|OFN|001
RNT|REMITTANCE ADV|1|NTE|ESN-Envelope Sequence Number|003
RMH|2
REM|2|0|Invoice Information|1127528|19900|0|0|0||||||||||||||0|0|0|0||
RNT|REMITTANCE ADV|1|NTE|ISN|000003
RNT|REMITTANCE ADV|1|NTE|OFN|002
RNT|REMITTANCE ADV|1|NTE|ESN-Envelope Sequence Number|003
RMH|3
REM|3|0|Invoice Information|1127755|8970|0|0|0||||||||||||||0|0|0|0||
RNT|REMITTANCE ADV|1|NTE|ISN|000003
RNT|REMITTANCE ADV|1|NTE|OFN|003
RNT|REMITTANCE ADV|1|NTE|ESN-Envelope Sequence Number|003
RMH|4
REM|4|0|Invoice Information|1127859|6205|0|0|0||||||||||||||0|0|0|0||
RNT|REMITTANCE ADV|1|NTE|ISN|000003
RNT|REMITTANCE ADV|1|NTE|OFN|004
RNT|REMITTANCE ADV|1|NTE|ESN-Envelope Sequence Number|003
RMH|5
REM|5|0|Invoice Information|1128050|93920|0|0|0||||||||||||||0|0|0|0||
RNT|REMITTANCE ADV|1|NTE|ISN|000003
RNT|REMITTANCE ADV|1|NTE|OFN|005
RNT|REMITTANCE ADV|1|NTE|ESN-Envelope Sequence Number|003
RMH|6
REM|6|0|Invoice Information|1128051|24190|0|0|0||||||||||||||0|0|0|0||
RNT|REMITTANCE ADV|1|NTE|ISN|000003
RNT|REMITTANCE ADV|1|NTE|OFN|006
RNT|REMITTANCE ADV|1|NTE|ESN-Envelope Sequence Number|003
RMH|7
REM|7|0|Invoice Information|1128071|18200|0|0|0||||||||||||||0|0|0|0||
RNT|REMITTANCE ADV|1|NTE|ISN|000003
RNT|REMITTANCE ADV|1|NTE|OFN|007
RNT|REMITTANCE ADV|1|NTE|ESN-Envelope Sequence Number|003
RMH|8
REM|8|0|Invoice Information|1128070|87720|0|0|0||||||||||||||0|0|0|0||
RNT|REMITTANCE ADV|1|NTE|ISN|000003
RNT|REMITTANCE ADV|1|NTE|OFN|008
RNT|REMITTANCE ADV|1|NTE|ESN-Envelope Sequence Number|003
RMH|9
REM|9|0|Invoice Information|1128131|48015|0|0|0||||||||||||||0|0|0|0||
RNT|REMITTANCE ADV|1|NTE|ISN|000003
RNT|REMITTANCE ADV|1|NTE|OFN|009
RNT|REMITTANCE ADV|1|NTE|ESN-Envelope Sequence Number|003
RMH|10
REM|10|0|Invoice Information|1128132|15410|0|0|0||||||||||||||0|0|0|0||
RNT|REMITTANCE ADV|1|NTE|ISN|000003
RNT|REMITTANCE ADV|1|NTE|OFN|010
RNT|REMITTANCE ADV|1|NTE|ESN-Envelope Sequence Number|003
RMH|11
REM|11|9|Invoice Information|1128279|3240|0|0|0||||||||||||||0|0|0|0||
RNT|REMITTANCE ADV|1|NTE|ISN|000003
RNT|REMITTANCE ADV|1|NTE|OFN|011
RNT|REMITTANCE ADV|1|NTE|ESN-Envelope Sequence Number|003
PR|4|122203471|1204000980|C|128970||CHK||005202|7567607||20160310||2016040408495772|||||||ESN-Envelope Sequence Number||004||||||||||0|||
PPR|SPENCER AEROSPACE MANUFACTURIN||||||||||||||||||||
PNT|PAYMENT|1|NTE|BTH|0001
RMH|1
REM|1|0|Invoice Information|1127202|120150|0|0|0||||||||||||||0|0|0|0||
RNT|REMITTANCE ADV|1|NTE|ISN|000004
RNT|REMITTANCE ADV|1|NTE|OFN|001
RNT|REMITTANCE ADV|1|NTE|ESN-Envelope Sequence Number|004
RMH|2
REM|2|9|Invoice Information|1127684|8820|0|0|0||||||||||||||0|0|0|0||
RNT|REMITTANCE ADV|1|NTE|ISN|000004
RNT|REMITTANCE ADV|1|NTE|OFN|002
RNT|REMITTANCE ADV|1|NTE|ESN-Envelope Sequence Number|004
PR|5|121000358|002157103950|C|33716||CHK||033207|7567608||20160310||2016040408495772|||||||ESN-Envelope Sequence Number||005||||||||||0|||
PPR|THOMAS COLBURN INC||||||||||||||||||||
PNT|PAYMENT|1|NTE|BTH|0001
RMH|1
REM|1|0|Invoice Information|1128499|11830|0|0|0||||||||||||||0|0|0|0||
RNT|REMITTANCE ADV|1|NTE|ISN|000005
RNT|REMITTANCE ADV|1|NTE|OFN|001
RNT|REMITTANCE ADV|1|NTE|ESN-Envelope Sequence Number|005
RMH|2
REM|2|9|Invoice Information|1128693|21886|0|0|0||||||||||||||0|0|0|0||
RNT|REMITTANCE ADV|1|NTE|ISN|000005
RNT|REMITTANCE ADV|1|NTE|OFN|002
RNT|REMITTANCE ADV|1|NTE|ESN-Envelope Sequence Number|005
PR|6|031311593|0207991|C|1559167||CHK||010090|7567609||20160310||2016040408495772|||||||ESN-Envelope Sequence Number||006||||||||||0|||
PPR|ISIMAC MACHINE COMPANY INC||||||||||||||||||||
PNT|PAYMENT|1|NTE|BTH|0001
RMH|1
REM|1|9|Invoice Information|N/A|1559167|0|0|0||||||||||||||0|0|0|0||
RNT|REMITTANCE ADV|1|NTE|ISN|000006
RNT|REMITTANCE ADV|1|NTE|OFN|001
RNT|REMITTANCE ADV|1|NTE|ESN-Envelope Sequence Number|006
PR|7|065305436|0176001148|C|27800||CHK||803502|7567610||20160310||2016040408495772|||||||ESN-Envelope Sequence Number||007||||||||||0|||
PPR|SOUTHERN PIPE AND SUPPLY CO IN||||||||||||||||||||
PNT|PAYMENT|1|NTE|BTH|0001
RMH|1
REM|1|9|Invoice Information|1128762|27800|0|0|0||||||||||||||0|0|0|0||
RNT|REMITTANCE ADV|1|NTE|ISN|000007
RNT|REMITTANCE ADV|1|NTE|OFN|001
RNT|REMITTANCE ADV|1|NTE|ESN-Envelope Sequence Number|007
PR|8|122203471|02202584|C|96250||CHK||040550|7567611||20160310||2016040408495772|||||||ESN-Envelope Sequence Number||008||||||||||0|||
PPR|SAWING SERVICES CO||||||||||||||||||||
PNT|PAYMENT|1|NTE|BTH|0001
RMH|1
REM|1|9|Invoice Information|1126877|96250|0|0|0||||||||||||||0|0|0|0||
RNT|REMITTANCE ADV|1|NTE|ISN|000008
RNT|REMITTANCE ADV|1|NTE|OFN|001
RNT|REMITTANCE ADV|1|NTE|ESN-Envelope Sequence Number|008
PR|9|211871604|1001034485|C|218000||CHK||035482|7567612||20160310||2016040408495772|||||||ESN-Envelope Sequence Number||009||||||||||0|||
PPR|ADVANCE MFG CO INC||||||||||||||||||||
PNT|PAYMENT|1|NTE|BTH|0001
RMH|1
REM|1|9|Invoice Information|1128540|218000|0|0|0||||||||||||||0|0|0|0||
RNT|REMITTANCE ADV|1|NTE|ISN|000009
RNT|REMITTANCE ADV|1|NTE|OFN|001
RNT|REMITTANCE ADV|1|NTE|ESN-Envelope Sequence Number|009
PR|10|122000247|0805037058|C|13755||CHK||014149|7567613||20160310||2016040408495772|||||||ESN-Envelope Sequence Number||010||||||||||0|||
PPR|EURO PRECISION INC||||||||||||||||||||
PNT|PAYMENT|1|NTE|BTH|0001
RMH|1
REM|1|9|Invoice Information|1129043|13755|0|0|0||||||||||||||0|0|0|0||
RNT|REMITTANCE ADV|1|NTE|ISN|000010
RNT|REMITTANCE ADV|1|NTE|OFN|001
RNT|REMITTANCE ADV|1|NTE|ESN-Envelope Sequence Number|010
PR|11|241070417|4519024012|C|78647||CHK||030492|7567614||20160310||2016040408495772|||||||ESN-Envelope Sequence Number||011||||||||||0|||
PPR|ENDOLITE||||||||||||||||||||
PNT|PAYMENT|1|NTE|BTH|0001
RMH|1
REM|1|0|Invoice Information|1128452|53960|0|0|0||||||||||||||0|0|0|0||
RNT|REMITTANCE ADV|1|NTE|ISN|000011
RNT|REMITTANCE ADV|1|NTE|OFN|001
RNT|REMITTANCE ADV|1|NTE|ESN-Envelope Sequence Number|011
RMH|2
REM|2|9|Invoice Information|1129099|24687|0|0|0||||||||||||||0|0|0|0||
RNT|REMITTANCE ADV|1|NTE|ISN|000011
RNT|REMITTANCE ADV|1|NTE|OFN|002
RNT|REMITTANCE ADV|1|NTE|ESN-Envelope Sequence Number|011
PR|12|122000661|000637610436|C|160550||CHK||036778|7567615||20160310||2016040408495772|||||||ESN-Envelope Sequence Number||012||||||||||0|||
PPR|MARUSHIN GROUP INCORPORATED||||||||||||||||||||
PNT|PAYMENT|1|NTE|BTH|0001
RMH|1
REM|1|0|Invoice Information|1126867|16390|0|0|0||||||||||||||0|0|0|0||
RNT|REMITTANCE ADV|1|NTE|ISN|000012
RNT|REMITTANCE ADV|1|NTE|OFN|001
RNT|REMITTANCE ADV|1|NTE|ESN-Envelope Sequence Number|012
RMH|2
REM|2|9|Invoice Information|1127604|144160|0|0|0||||||||||||||0|0|0|0||
RNT|REMITTANCE ADV|1|NTE|ISN|000012
RNT|REMITTANCE ADV|1|NTE|OFN|002
RNT|REMITTANCE ADV|1|NTE|ESN-Envelope Sequence Number|012
PR|13|041000124|4247655576|C|48600||CHK||068498|7567616||20160310||2016040408495772|||||||ESN-Envelope Sequence Number||013||||||||||0|||
PPR|STANDARD DIE AND FABRICATING||||||||||||||||||||
PNT|PAYMENT|1|NTE|BTH|0001
RMH|1
REM|1|9|Invoice Information|1127615|48600|0|0|0||||||||||||||0|0|0|0||
RNT|REMITTANCE ADV|1|NTE|ISN|000013
RNT|REMITTANCE ADV|1|NTE|OFN|001
RNT|REMITTANCE ADV|1|NTE|ESN-Envelope Sequence Number|013
PR|14|222370440|007070245048|C|67628||CHK||2155|7567617||20160310||2016040408495772|||||||ESN-Envelope Sequence Number||014||||||||||0|||
PPR|METALMART LLC||||||||||||||||||||
PNT|PAYMENT|1|NTE|BTH|0001
RMH|1
REM|1|9|Invoice Information|1128940|67628|0|0|0||||||||||||||0|0|0|0||
RNT|REMITTANCE ADV|1|NTE|ISN|000014
RNT|REMITTANCE ADV|1|NTE|OFN|001
RNT|REMITTANCE ADV|1|NTE|ESN-Envelope Sequence Number|014
PR|15|122243402|0302302708|C|43300||CHK||013108|7567618||20160310||2016040408495772|||||||ESN-Envelope Sequence Number||015||||||||||0|||
PPR|SAN DIEGO PRECISION MACHINING||||||||||||||||||||
PNT|PAYMENT|1|NTE|BTH|0001
RMH|1
REM|1|9|Invoice Information|1128271|43300|0|0|0||||||||||||||0|0|0|0||
RNT|REMITTANCE ADV|1|NTE|ISN|000015
RNT|REMITTANCE ADV|1|NTE|OFN|001
RNT|REMITTANCE ADV|1|NTE|ESN-Envelope Sequence Number|015
PR|16|211170318|24080002447|C|75000||CHK||0000005156|7567619||20160310||2016040408495772|||||||ESN-Envelope Sequence Number||016||||||||||0|||
PPR|CPI MANUFACTURING LLC||||||||||||||||||||
PNT|PAYMENT|1|NTE|BTH|0001
RMH|1
REM|1|9|Invoice Information|1113395|75000|0|0|0||||||||||||||0|0|0|0||
RNT|REMITTANCE ADV|1|NTE|ISN|000016
RNT|REMITTANCE ADV|1|NTE|OFN|001
RNT|REMITTANCE ADV|1|NTE|ESN-Envelope Sequence Number|016
PR|17|322271627|8843777901|C|42000||CHK||003783|7567620||20160310||2016040408495772|||||||ESN-Envelope Sequence Number||017||||||||||0|||
PPR|DELTA ALLOYS LLC||||||||||||||||||||
PNT|PAYMENT|1|NTE|BTH|0001
RMH|1
REM|1|9|Invoice Information|1128174|42000|0|0|0||||||||||||||0|0|0|0||
RNT|REMITTANCE ADV|1|NTE|ISN|000017
RNT|REMITTANCE ADV|1|NTE|OFN|001
RNT|REMITTANCE ADV|1|NTE|ESN-Envelope Sequence Number|017
PR|18|043301627|1030430241|C|444000||CHK||520009359|7567621||20160310||2016040408495772|||||||ESN-Envelope Sequence Number||018||||||||||0|||
PPR|MPS ANZON LLC||||||||||||||||||||
PNT|PAYMENT|1|NTE|BTH|0001
RMH|1
REM|1|9|Invoice Information|1127672|444000|0|0|0||||||||||||||0|0|0|0||
RNT|REMITTANCE ADV|1|NTE|ISN|000018
RNT|REMITTANCE ADV|1|NTE|OFN|001
RNT|REMITTANCE ADV|1|NTE|ESN-Envelope Sequence Number|018
PR|19|122000661|001167804154|C|53997||CHK||015021|7567622||20160310||2016040408495772|||||||ESN-Envelope Sequence Number||019||||||||||0|||
PPR|MARTIN CHANDLER INC||||||||||||||||||||
PNT|PAYMENT|1|NTE|BTH|0001
RMH|1
REM|1|0|Invoice Information|1128259|33372|0|0|0||||||||||||||0|0|0|0||
RNT|REMITTANCE ADV|1|NTE|ISN|000019
RNT|REMITTANCE ADV|1|NTE|OFN|001
RNT|REMITTANCE ADV|1|NTE|ESN-Envelope Sequence Number|019
RMH|2
REM|2|9|Invoice Information|1128260|20625|0|0|0||||||||||||||0|0|0|0||
RNT|REMITTANCE ADV|1|NTE|ISN|000019
RNT|REMITTANCE ADV|1|NTE|OFN|002
RNT|REMITTANCE ADV|1|NTE|ESN-Envelope Sequence Number|019
PR|20|042000013|8734287|C|709640||CHK||129974|7567623||20160310||2016040408495772|||||||ESN-Envelope Sequence Number||020||||||||||0|||
PPR|RICHARDS INDUSTRIES INC||||||||||||||||||||
PNT|PAYMENT|1|NTE|BTH|0001
RMH|1
REM|1|0|Invoice Information|1128743|63400|0|0|0||||||||||||||0|0|0|0||
RNT|REMITTANCE ADV|1|NTE|ISN|000020
RNT|REMITTANCE ADV|1|NTE|OFN|001
RNT|REMITTANCE ADV|1|NTE|ESN-Envelope Sequence Number|020
RMH|2
REM|2|0|Invoice Information|1130134|102960|0|0|0||||||||||||||0|0|0|0||
RNT|REMITTANCE ADV|1|NTE|ISN|000020
RNT|REMITTANCE ADV|1|NTE|OFN|002
RNT|REMITTANCE ADV|1|NTE|ESN-Envelope Sequence Number|020
RMH|3
REM|3|9|Invoice Information|1129988|543280|0|0|0||||||||||||||0|0|0|0||
RNT|REMITTANCE ADV|1|NTE|ISN|000020
RNT|REMITTANCE ADV|1|NTE|OFN|003
RNT|REMITTANCE ADV|1|NTE|ESN-Envelope Sequence Number|020
PR|21|122003396|3222028990|C|8525||CHK||013309|7567624||20160310||2016040408495772|||||||ESN-Envelope Sequence Number||021||||||||||0|||
PPR|GOOD MACHINE AND TOOL||||||||||||||||||||
PNT|PAYMENT|1|NTE|BTH|0001
RMH|1
REM|1|9|Invoice Information|1129378|8525|0|0|0||||||||||||||0|0|0|0||
RNT|REMITTANCE ADV|1|NTE|ISN|000021
RNT|REMITTANCE ADV|1|NTE|OFN|001
RNT|REMITTANCE ADV|1|NTE|ESN-Envelope Sequence Number|021
PR|22|041203824|9665451259|C|114980||CHK||0001043127|7567625||20160310||2016040408495772|||||||ESN-Envelope Sequence Number||022||||||||||0|||
PPR|RYERSON PROCUREMENT CORPORATIO||||||||||||||||||||
PNT|PAYMENT|1|NTE|BTH|0001
RMH|1
REM|1|0|Invoice Information|1128217|92300|0|0|0||||||||||||||0|0|0|0||
RNT|REMITTANCE ADV|1|NTE|ISN|000022
RNT|REMITTANCE ADV|1|NTE|OFN|001
RNT|REMITTANCE ADV|1|NTE|ESN-Envelope Sequence Number|022
RMH|2
REM|2|9|Invoice Information|1127849|22680|0|0|0||||||||||||||0|0|0|0||
RNT|REMITTANCE ADV|1|NTE|ISN|000022
RNT|REMITTANCE ADV|1|NTE|OFN|002
RNT|REMITTANCE ADV|1|NTE|ESN-Envelope Sequence Number|022
PR|23|122037760|001064382188|C|754609||CHK||0000005268|7567626||20160310||2016040408495772|||||||ESN-Envelope Sequence Number||023||||||||||0|||
PPR|MCDANIEL MANUFACTURING INC||||||||||||||||||||
PNT|PAYMENT|1|NTE|BTH|0001
RMH|1
REM|1|0|Invoice Information|1129050|170800|0|0|0||||||||||||||0|0|0|0||
RNT|REMITTANCE ADV|1|NTE|ISN|000023
RNT|REMITTANCE ADV|1|NTE|OFN|001
RNT|REMITTANCE ADV|1|NTE|ESN-Envelope Sequence Number|023
RMH|2
REM|2|0|Invoice Information|1129051|17100|0|0|0||||||||||||||0|0|0|0||
RNT|REMITTANCE ADV|1|NTE|ISN|000023
RNT|REMITTANCE ADV|1|NTE|OFN|002
RNT|REMITTANCE ADV|1|NTE|ESN-Envelope Sequence Number|023
RMH|3
REM|3|0|Invoice Information|1129242|199401|0|0|0||||||||||||||0|0|0|0||
RNT|REMITTANCE ADV|1|NTE|ISN|000023
RNT|REMITTANCE ADV|1|NTE|OFN|003
RNT|REMITTANCE ADV|1|NTE|ESN-Envelope Sequence Number|023
RMH|4
REM|4|9|Invoice Information|1129243|367308|0|0|0||||||||||||||0|0|0|0||
RNT|REMITTANCE ADV|1|NTE|ISN|000023
RNT|REMITTANCE ADV|1|NTE|OFN|004
RNT|REMITTANCE ADV|1|NTE|ESN-Envelope Sequence Number|023
PR|24|041203824|9665451259|C|43560||CHK||0007044583|7567627||20160310||2016040408495772|||||||ESN-Envelope Sequence Number||024||||||||||0|||
PPR|RYERSON||||||||||||||||||||
PNT|PAYMENT|1|NTE|BTH|0001
RMH|1
REM|1|9|Invoice Information|1128137|43560|0|0|0||||||||||||||0|0|0|0||
RNT|REMITTANCE ADV|1|NTE|ISN|000024
RNT|REMITTANCE ADV|1|NTE|OFN|001
RNT|REMITTANCE ADV|1|NTE|ESN-Envelope Sequence Number|024
PR|25|072000326|638155353|C|563640||CHK||023250|7567628||20160310||2016040408495772|||||||ESN-Envelope Sequence Number||025||||||||||0|||
PPR|SWISS AMERICAN SCREW PRODUCTS||||||||||||||||||||
PNT|PAYMENT|1|NTE|BTH|0001
RMH|1
REM|1|9|Invoice Information|1127397|563640|0|0|0||||||||||||||0|0|0|0||
RNT|REMITTANCE ADV|1|NTE|ISN|000025
RNT|REMITTANCE ADV|1|NTE|OFN|001
RNT|REMITTANCE ADV|1|NTE|ESN-Envelope Sequence Number|025
PR|26|322271627|960862779|C|353699||CHK||107559|7567629||20160310||2016040408495772|||||||ESN-Envelope Sequence Number||026||||||||||0|||
PPR|CMS ENGINEERING INC||||||||||||||||||||
PNT|PAYMENT|1|NTE|BTH|0001
RMH|1
REM|1|0|Invoice Information|1130650|19112|0|96|0||||||||||||||0|0|0|0||
RNT|REMITTANCE ADV|1|NTE|ISN|000026
RNT|REMITTANCE ADV|1|NTE|OFN|001
RNT|REMITTANCE ADV|1|NTE|ESN-Envelope Sequence Number|026
RMH|2
REM|2|0|Invoice Information|1130651|7074|0|36|0||||||||||||||0|0|0|0||
RNT|REMITTANCE ADV|1|NTE|ISN|000026
RNT|REMITTANCE ADV|1|NTE|OFN|002
RNT|REMITTANCE ADV|1|NTE|ESN-Envelope Sequence Number|026
RMH|3
REM|3|0|Invoice Information|1130652|30702|0|154|0||||||||||||||0|0|0|0||
RNT|REMITTANCE ADV|1|NTE|ISN|000026
RNT|REMITTANCE ADV|1|NTE|OFN|003
RNT|REMITTANCE ADV|1|NTE|ESN-Envelope Sequence Number|026
RMH|4
REM|4|0|Invoice Information|1130653|18995|0|95|0||||||||||||||0|0|0|0||
RNT|REMITTANCE ADV|1|NTE|ISN|000026
RNT|REMITTANCE ADV|1|NTE|OFN|004
RNT|REMITTANCE ADV|1|NTE|ESN-Envelope Sequence Number|026
RMH|5
REM|5|0|Invoice Information|1130654|188825|0|949|0||||||||||||||0|0|0|0||
RNT|REMITTANCE ADV|1|NTE|ISN|000026
RNT|REMITTANCE ADV|1|NTE|OFN|005
RNT|REMITTANCE ADV|1|NTE|ESN-Envelope Sequence Number|026
RMH|6
REM|6|0|Invoice Information|1130803|14957|0|75|0||||||||||||||0|0|0|0||
RNT|REMITTANCE ADV|1|NTE|ISN|000026
RNT|REMITTANCE ADV|1|NTE|OFN|006
RNT|REMITTANCE ADV|1|NTE|ESN-Envelope Sequence Number|026
RMH|7
REM|7|0|Invoice Information|1130804|20877|0|105|0||||||||||||||0|0|0|0||
RNT|REMITTANCE ADV|1|NTE|ISN|000026
RNT|REMITTANCE ADV|1|NTE|OFN|007
RNT|REMITTANCE ADV|1|NTE|ESN-Envelope Sequence Number|026
RMH|8
REM|8|9|Invoice Information|1130805|53157|0|267|0||||||||||||||0|0|0|0||
RNT|REMITTANCE ADV|1|NTE|ISN|000026
RNT|REMITTANCE ADV|1|NTE|OFN|008
RNT|REMITTANCE ADV|1|NTE|ESN-Envelope Sequence Number|026
PR|27|044115443|637185760|C|345946||CHK||719984|7567630||20160310||2016040408495772|||||||ESN-Envelope Sequence Number||027||||||||||0|||
PPR|PRECISION METAL PRODUCTS INC||||||||||||||||||||
PNT|PAYMENT|1|NTE|BTH|0001
RMH|1
REM|1|9|Invoice Information|1130453|345946|0|3494|0||||||||||||||0|0|0|0||
RNT|REMITTANCE ADV|1|NTE|ISN|000027
RNT|REMITTANCE ADV|1|NTE|OFN|001
RNT|REMITTANCE ADV|1|NTE|ESN-Envelope Sequence Number|027
PR|28|053101561|8018016926|C|17900||CHK||0000167780|7567631||20160310||2016040408495772|||||||ESN-Envelope Sequence Number||028||||||||||0|||
PPR|MRC GLOBAL||||||||||||||||||||
PNT|PAYMENT|1|NTE|BTH|0001
RMH|1
REM|1|9|Invoice Information|1126786|17900|0|0|0||||||||||||||0|0|0|0||
RNT|REMITTANCE ADV|1|NTE|ISN|000028
RNT|REMITTANCE ADV|1|NTE|OFN|001
RNT|REMITTANCE ADV|1|NTE|ESN-Envelope Sequence Number|028
PR|29|021000021|719829322|C|77212||CHK||061978|7567632||20160310||2016040408495772|||||||ESN-Envelope Sequence Number||029||||||||||0|||
PPR|3D MEDICAL MANUFACTURING||||||||||||||||||||
PNT|PAYMENT|1|NTE|BTH|0001
RMH|1
REM|1|9|Invoice Information|1125890|77212|0|0|0||||||||||||||0|0|0|0||
RNT|REMITTANCE ADV|1|NTE|ISN|000029
RNT|REMITTANCE ADV|1|NTE|OFN|001
RNT|REMITTANCE ADV|1|NTE|ESN-Envelope Sequence Number|029
PR|30|021201383|0041077423|C|1155000||CHK||008237|7567633||20160310||2016040408495772|||||||ESN-Envelope Sequence Number||030||||||||||0|||
PPR|ADMIRAL FILTER COMPANY LLC||||||||||||||||||||
PNT|PAYMENT|1|NTE|BTH|0001
RMH|1
REM|1|9|Invoice Information|N/A|1155000|0|0|0||||||||||||||0|0|0|0||
RNT|REMITTANCE ADV|1|NTE|ISN|000030
RNT|REMITTANCE ADV|1|NTE|OFN|001
RNT|REMITTANCE ADV|1|NTE|ESN-Envelope Sequence Number|030
BT|0001|30|0|7748151|7748151|0|0|0
PTH|WIR|121000248|4121238893||
BH|1|4|0|9467192|9467192|0|0|0
PR|1|0001|NO0382100421298|C|6203193||FWT||F1S1603070930500|292940|160307035820|20160307||2016030708050000|||||||||||||OTH-Originator Beneficiary Informat|PART PAYMENT OF OUTSTANDING INVOICES||||||||
PNO|BANK OF NEW YORK MELLON CORPORATION||||||ONE WALL STREET||NEW YORK, NY||||||||||||
PPE|TITANIUM INDUSTRIES INC||||||18 GREEN POND ROAD|ROCKAWAY|NJ 07866||||||||||||
PPR|TITANIUM INDUSTRIES NORWAY AS|NO0382100421298|||||FAGERNES 4||5043 BERGEN||||||||||||
POB|DNB BANK ASA|DNBANOKK|||||DRONNING EUFEMIAS GATE 30|OSLO (0191)|NORWAY||||||||||||
PNT|PAYMENT|1|REF|TN -Transaction Reference Number|7906NOO15245624
PNT|PAYMENT|1|REF|L1 -Letters or Notes|LESS FEES
PNT|PAYMENT|1|REF|11 -Account Number|4121238893
PR|2|0001|NO9316441737665|C|3057699||FWT||F1S1603070917000|292933|160307035818|20160307||2016030708050000|||||||||||||OTH-Originator Beneficiary Informat|FINAL PAYMENT OF STATEMENT DATED 29.2.16||||||||
PNO|BANK OF NEW YORK MELLON CORPORATION||||||ONE WALL STREET||NEW YORK, NY||||||||||||
PPE|TITANIUM INDUSTRIES INC||||||18 GREEN POND ROAD|ROCKAWAY|NJ 07866||||||||||||
PPR|TITANIUM INDUSTRIES NORWAY AS|NO9316441737665|||||FAGERNES 4||5043 BERGEN||||||||||||
POB|DNB BANK ASA|DNBANOKK|||||DRONNING EUFEMIAS GATE 30|OSLO (0191)|NORWAY||||||||||||
PNT|PAYMENT|1|REF|TN -Transaction Reference Number|7906NOO15245407
PNT|PAYMENT|1|REF|L1 -Letters or Notes|LESS FEES
PNT|PAYMENT|1|REF|11 -Account Number|4121238893
PR|3|000028581|8200000420147193|C|69500||SWT||F50309618790000|160309PNBPUS3NANYC8603728440|160309033585|20160309||2016030908170000|||||||||||||OTH-Originator Beneficiary Informat|CUSTOMER ID 13176/1QUOTE JAC 52548 RFB FT16069RBHG1||||||||
PNO|WELLS FARGO BANK, N.A.||||||375 PARK AVENUE||NEW YORK, NY||||||||||||
PPE|TITANIUM INDUSTRIES, INC.||||||18 GREEN POND ROAD|ROCKAWAY, NJ 07866|USA||||||||||||
PPR|SMAAL WATER SERVICES NV|8200000420147193|||||JAGUAR RD 6||CAY HILL AN||||||||||||
PSB|WELLS FARGO BANK, N.A.|PNBPUS3NNYC|||||375 PARK AVENUE||||||||||||||
POB|RBC ROYAL BANK N.V. (FORMERLY RBTT|RBTTSXSM|||||BANK ST. MAARTEN N.V.)|CANNEGIETER STREET, 24|PHILIPSBURG,SX SINT||||||||||||
PNT|PAYMENT|1|REF|11 -Account Number|4121238893
PR|4|026002561|102014204|C|136800||SWT||2016030900141891|0309B1Q9282C007022|160309128000|20160309||2016030915390000|||||||||||||OTH-Originator Beneficiary Informat|/RFB/INVOICE N 1123938||||||||
PNO|STANDARD CHARTERED BANK||||||ONE MADISON AVE||NEW YORK NY||||||||||||
PPE|TITANIUM INDUSTRIES INC||||||18 GREEN POND ROAD ROCKAWAY NY 078||66 ESTADOS UNIDOS (U.S.A.)||||||||||||
PPR|INDUSTRIAS MEDICAS SAMPEDRO S.A.S.|102014204|||||CR 47 NO. 100 SUR CTO IND PTAL DEL|SUR BOD 14 VARIANTES CALDAS SEC TER|RAZAS, ANTIOQUIA, ID 008110329||||||||||||
PSB|HELM BANK (PANAMA) SA|3544031769001|||||CALLE 53 ESTE MARBELLA||||||||||||||
POB|HELM BANK (PANAMA) SA|BCTOPAPA|||||CALLE 53 ESTE MARBELLA|EDIFICIO WORLD TRADE CENTER|PANAMA, PANAMA||||||||||||
PNT|PAYMENT|1|REF|TN -Transaction Reference Number|INVOICE N 112393
PNT|PAYMENT|1|REF|11 -Account Number|4121238893
BT|1|4|0|9467192|9467192|0|0|0
PTH|ACH|121000248|4121238893||
FT|19010|201604040849|425

